test/simulation.log
iverilog -o ../tomasulo/sim/out.vvp -I ../tomasulo/src ../tomasulo/sim/testbench.v ../tomasulo/src/*.v
vvp ../tomasulo/sim/out.vvp
WARNING: ../tomasulo/sim/testbench.v:60: $readmemh(inst_rom.data): Not enough words in the file for the requested range [0:65535].
VCD info: dumpfile tomasulo_cpu.vcd opened for output.
[ISSUE ] Time: 125000, ROB_ID: 0, PC: 00000000, OP: 11
Time:               125000 | ISSUE: PC=00000000 | Op=0b | DestROB= 0 | RD= 2
Time:               135000 | ISSUE: PC=00000004 | Op=0c | DestROB= 1 | RD= 1
[ISSUE ] Time: 135000, ROB_ID: 1, PC: 00000004, OP: 12
RS: Issued op=0b rob_id= 0 to FU
[ISSUE ] Time: 145000, ROB_ID: 2, PC: 00000008, OP:  1
Time:               145000 | ISSUE: PC=00000008 | Op=01 | DestROB= 2 | RD= 1
Time:               155000 | ISSUE: PC=0000000c | Op=01 | DestROB= 3 | RD= 0
[ISSUE ] Time: 155000, ROB_ID: 3, PC: 0000000c, OP:  1
[COMPL ] Time: 155000, ROB_ID: 0, Val: 00040000
RS: Issued op=01 rob_id= 2 to FU
[ISSUE ] Time: 165000, ROB_ID: 4, PC: 00000010, OP:  1
[COMMIT] Time: 165000, ROB_ID: 0, PC: 00000000, OP: 11
Time:               165000 | ISSUE: PC=00000010 | Op=01 | DestROB= 4 | RD= 0
Time:               175000 | ISSUE: PC=00000014 | Op=01 | DestROB= 5 | RD= 0
[ISSUE ] Time: 175000, ROB_ID: 5, PC: 00000014, OP:  1
[ISSUE ] Time: 185000, ROB_ID: 6, PC: 00000018, OP:  1
[COMPL ] Time: 185000, ROB_ID: 2, Val: 00000000
Time:               185000 | ISSUE: PC=00000018 | Op=01 | DestROB= 6 | RD= 0
Time:               195000 | ISSUE: PC=0000001c | Op=01 | DestROB= 7 | RD= 0
[ISSUE ] Time: 195000, ROB_ID: 7, PC: 0000001c, OP:  1
RS: Issued op=01 rob_id= 5 to FU
[COMPL ] Time: 215000, ROB_ID: 5, Val: 00000000
RS: Issued op=0c rob_id= 1 to FU
[COMPL ] Time: 245000, ROB_ID: 1, Val: 00000008
Time:               275000 | ISSUE: PC=00000028 | Op=01 | DestROB= 0 | RD= 2
[ISSUE ] Time: 275000, ROB_ID: 0, PC: 00000028, OP:  1
RS: Issued op=01 rob_id= 0 to FU
[ISSUE ] Time: 285000, ROB_ID: 1, PC: 0000002c, OP: 25
Time:               285000 | ISSUE: PC=0000002c | Op=19 | DestROB= 1 | RD=28
Time:               295000 | ISSUE: PC=00000030 | Op=19 | DestROB= 2 | RD=24
[ISSUE ] Time: 295000, ROB_ID: 2, PC: 00000030, OP: 25
[ISSUE ] Time: 305000, ROB_ID: 3, PC: 00000034, OP:  1
[COMPL ] Time: 305000, ROB_ID: 0, Val: 0003ffe0
Time:               305000 | ISSUE: PC=00000034 | Op=01 | DestROB= 3 | RD= 8
Time:               315000 | ISSUE: PC=00000038 | Op=01 | DestROB= 4 | RD=15
[ISSUE ] Time: 315000, ROB_ID: 4, PC: 00000038, OP:  1
[COMMIT] Time: 315000, ROB_ID: 0, PC: 00000028, OP:  1
RS: Issued op=01 rob_id= 3 to FU
[ISSUE ] Time: 325000, ROB_ID: 5, PC: 0000003c, OP: 25
Time:               325000 | ISSUE: PC=0000003c | Op=19 | DestROB= 5 | RD=12
Time:               335000 | ISSUE: PC=00000040 | Op=01 | DestROB= 6 | RD=15
[ISSUE ] Time: 335000, ROB_ID: 6, PC: 00000040, OP:  1
[COMPL ] Time: 335000, ROB_ID: 1, Val: 00000000
[ISSUE ] Time: 345000, ROB_ID: 7, PC: 00000044, OP: 25
[COMPL ] Time: 345000, ROB_ID: 3, Val: 00040000
[COMMIT] Time: 345000, ROB_ID: 1, PC: 0000002c, OP: 25
Time:               345000 | ISSUE: PC=00000044 | Op=19 | DestROB= 7 | RD= 8
Time:               355000 | ISSUE: PC=00000048 | Op=19 | DestROB= 8 | RD= 4
[ISSUE ] Time: 355000, ROB_ID: 8, PC: 00000048, OP: 25
[COMPL ] Time: 355000, ROB_ID: 2, Val: 00000000
RS: Issued op=01 rob_id= 6 to FU
[ISSUE ] Time: 365000, ROB_ID: 9, PC: 0000004c, OP:  1
[COMMIT] Time: 365000, ROB_ID: 2, PC: 00000030, OP: 25
Time:               365000 | ISSUE: PC=0000004c | Op=01 | DestROB= 9 | RD=15
Time:               375000 | ISSUE: PC=00000050 | Op=19 | DestROB=10 | RD= 0
[ISSUE ] Time: 375000, ROB_ID: 10, PC: 00000050, OP: 25
[COMPL ] Time: 375000, ROB_ID: 6, Val: 00000014
[COMMIT] Time: 375000, ROB_ID: 3, PC: 00000034, OP:  1
RS: Issued op=01 rob_id= 9 to FU
[ISSUE ] Time: 385000, ROB_ID: 11, PC: 00000054, OP: 24
Time:               385000 | ISSUE: PC=00000054 | Op=18 | DestROB=11 | RD=15
Time:               395000 | ISSUE: PC=00000058 | Op=18 | DestROB=12 | RD=14
[ISSUE ] Time: 395000, ROB_ID: 12, PC: 00000058, OP: 24
[ISSUE ] Time: 405000, ROB_ID: 13, PC: 0000005c, OP:  1
[COMPL ] Time: 405000, ROB_ID: 9, Val: 00000064
Time:               405000 | ISSUE: PC=0000005c | Op=01 | DestROB=13 | RD=11
Time:               415000 | ISSUE: PC=00000060 | Op=01 | DestROB=14 | RD=10
[ISSUE ] Time: 415000, ROB_ID: 14, PC: 00000060, OP:  1
RS: Issued op=01 rob_id= 4 to FU
[ISSUE ] Time: 425000, ROB_ID: 15, PC: 00000064, OP: 12
Time:               425000 | ISSUE: PC=00000064 | Op=0c | DestROB=15 | RD= 1
Time:               435000 | ISSUE: PC=00000068 | Op=01 | DestROB= 0 | RD=15
[ISSUE ] Time: 435000, ROB_ID: 0, PC: 00000068, OP:  1
[COMPL ] Time: 435000, ROB_ID: 4, Val: 0000000a
RS: Issued op=0c rob_id=15 to FU
[ISSUE ] Time: 445000, ROB_ID: 1, PC: 0000006c, OP: 25
[COMMIT] Time: 445000, ROB_ID: 4, PC: 00000038, OP:  1
Time:               445000 | ISSUE: PC=0000006c | Op=19 | DestROB= 1 | RD= 4
Time:               455000 | ISSUE: PC=00000070 | Op=18 | DestROB= 2 | RD=15
[ISSUE ] Time: 455000, ROB_ID: 2, PC: 00000070, OP: 24
[ISSUE ] Time: 465000, ROB_ID: 3, PC: 00000074, OP:  1
[COMPL ] Time: 465000, ROB_ID: 5, Val: 00000000
Time:               465000 | ISSUE: PC=00000074 | Op=01 | DestROB= 3 | RD=15
Time:               475000 | ISSUE: PC=00000078 | Op=19 | DestROB= 4 | RD= 0
[ISSUE ] Time: 475000, ROB_ID: 4, PC: 00000078, OP: 25
[COMPL ] Time: 475000, ROB_ID: 15, Val: 00000068
[COMMIT] Time: 475000, ROB_ID: 5, PC: 0000003c, OP: 25
[ISSUE ] Time: 485000, ROB_ID: 5, PC: 0000007c, OP: 24
[COMPL ] Time: 485000, ROB_ID: 7, Val: 00000000
[COMMIT] Time: 485000, ROB_ID: 6, PC: 00000040, OP:  1
Time:               485000 | ISSUE: PC=0000007c | Op=18 | DestROB= 5 | RD=15
Time:               495000 | ISSUE: PC=00000080 | Op=01 | DestROB= 6 | RD=15
[ISSUE ] Time: 495000, ROB_ID: 6, PC: 00000080, OP:  1
[COMMIT] Time: 495000, ROB_ID: 7, PC: 00000044, OP: 25
[ISSUE ] Time: 505000, ROB_ID: 7, PC: 00000084, OP: 25
[COMPL ] Time: 505000, ROB_ID: 8, Val: 00000000
Time:               505000 | ISSUE: PC=00000084 | Op=19 | DestROB= 7 | RD= 0
[COMMIT] Time: 515000, ROB_ID: 8, PC: 00000048, OP: 25
[ISSUE ] Time: 525000, ROB_ID: 8, PC: 00000088, OP: 24
[COMPL ] Time: 525000, ROB_ID: 10, Val: 00000000
[COMMIT] Time: 525000, ROB_ID: 9, PC: 0000004c, OP:  1
Time:               525000 | ISSUE: PC=00000088 | Op=18 | DestROB= 8 | RD=15
Time:               535000 | ISSUE: PC=0000008c | Op=01 | DestROB= 9 | RD=15
[ISSUE ] Time: 535000, ROB_ID: 9, PC: 0000008c, OP:  1
[COMMIT] Time: 535000, ROB_ID: 10, PC: 00000050, OP: 25
[ISSUE ] Time: 545000, ROB_ID: 10, PC: 00000090, OP: 25
Time:               545000 | ISSUE: PC=00000090 | Op=19 | DestROB=10 | RD= 0
[COMPL ] Time: 555000, ROB_ID: 11, Val: 0000000a
RS: Issued op=01 rob_id=14 to FU
[COMMIT] Time: 565000, ROB_ID: 11, PC: 00000054, OP: 24
Time:               575000 | ISSUE: PC=00000094 | Op=18 | DestROB=11 | RD=14
[ISSUE ] Time: 575000, ROB_ID: 11, PC: 00000094, OP: 24
[COMPL ] Time: 585000, ROB_ID: 14, Val: 0000000a
[COMPL ] Time: 595000, ROB_ID: 12, Val: 00000014
RS: Issued op=01 rob_id= 0 to FU
[COMMIT] Time: 605000, ROB_ID: 12, PC: 00000058, OP: 24
Time:               615000 | ISSUE: PC=00000098 | Op=18 | DestROB=12 | RD=15
[ISSUE ] Time: 615000, ROB_ID: 12, PC: 00000098, OP: 24
[COMPL ] Time: 615000, ROB_ID: 0, Val: 0000000a
RS: Issued op=01 rob_id=13 to FU
[COMPL ] Time: 645000, ROB_ID: 1, Val: 00000000
[COMPL ] Time: 655000, ROB_ID: 13, Val: 00000014
[COMMIT] Time: 665000, ROB_ID: 13, PC: 0000005c, OP:  1
Time:               675000 | ISSUE: PC=0000009c | Op=01 | DestROB=13 | RD=15
[ISSUE ] Time: 675000, ROB_ID: 13, PC: 0000009c, OP:  1
[COMPL ] Time: 675000, ROB_ID: 2, Val: 00000064
[COMMIT] Time: 675000, ROB_ID: 14, PC: 00000060, OP:  1
Time:               685000 | ISSUE: PC=000000a0 | Op=01 | DestROB=14 | RD=10
[ISSUE ] Time: 705000, ROB_ID: 0, PC: 000000b4, OP:  1
Time:               705000 | ISSUE: PC=000000b4 | Op=01 | DestROB= 0 | RD=12
Time:               715000 | ISSUE: PC=000000b8 | Op=01 | DestROB= 1 | RD=10
[ISSUE ] Time: 715000, ROB_ID: 1, PC: 000000b8, OP:  1
RS: Issued op=01 rob_id= 0 to FU
[ISSUE ] Time: 725000, ROB_ID: 2, PC: 000000bc, OP: 10
Time:               725000 | ISSUE: PC=000000bc | Op=0a | DestROB= 2 | RD=13
Time:               735000 | ISSUE: PC=000000c0 | Op=10 | DestROB= 3 | RD= 8
[ISSUE ] Time: 735000, ROB_ID: 3, PC: 000000c0, OP: 16
[COMPL ] Time: 735000, ROB_ID: 0, Val: 0000000a
RS: Issued op=0a rob_id= 2 to FU
[ISSUE ] Time: 745000, ROB_ID: 4, PC: 000000c4, OP:  1
[COMMIT] Time: 745000, ROB_ID: 0, PC: 000000b4, OP:  1
Time:               745000 | ISSUE: PC=000000c4 | Op=01 | DestROB= 4 | RD=10
Time:               755000 | ISSUE: PC=000000c8 | Op=07 | DestROB= 5 | RD=11
[ISSUE ] Time: 755000, ROB_ID: 5, PC: 000000c8, OP:  7
[ISSUE ] Time: 765000, ROB_ID: 6, PC: 000000cc, OP:  3
[COMPL ] Time: 765000, ROB_ID: 2, Val: 00000000
Time:               765000 | ISSUE: PC=000000cc | Op=03 | DestROB= 6 | RD=12
Time:               775000 | ISSUE: PC=000000d0 | Op=11 | DestROB= 7 | RD=13
[ISSUE ] Time: 775000, ROB_ID: 7, PC: 000000d0, OP: 17
RS: Issued op=07 rob_id= 5 to FU
[ISSUE ] Time: 785000, ROB_ID: 8, PC: 000000d4, OP: 12
Time:               785000 | ISSUE: PC=000000d4 | Op=0c | DestROB= 8 | RD= 0
Time:               795000 | ISSUE: PC=000000d8 | Op=00 | DestROB= 9 | RD= 0
[ISSUE ] Time: 795000, ROB_ID: 9, PC: 000000d8, OP:  0
[COMPL ] Time: 795000, ROB_ID: 5, Val: 0000000a
RS: Issued op=0c rob_id= 8 to FU
[ISSUE ] Time: 805000, ROB_ID: 10, PC: 000000dc, OP:  0
Time:               805000 | ISSUE: PC=000000dc | Op=00 | DestROB=10 | RD= 0
Time:               815000 | ISSUE: PC=000000e0 | Op=00 | DestROB=11 | RD= 0
[ISSUE ] Time: 815000, ROB_ID: 11, PC: 000000e0, OP:  0
[ISSUE ] Time: 825000, ROB_ID: 12, PC: 000000e4, OP:  0
[COMPL ] Time: 825000, ROB_ID: 8, Val: 000000d8
Time:               825000 | ISSUE: PC=000000e4 | Op=00 | DestROB=12 | RD= 0
Time:               835000 | ISSUE: PC=000000e8 | Op=00 | DestROB=13 | RD= 0
[ISSUE ] Time: 835000, ROB_ID: 13, PC: 000000e8, OP:  0
RS: Issued op=01 rob_id= 1 to FU
[ISSUE ] Time: 845000, ROB_ID: 14, PC: 000000ec, OP:  0
Time:               845000 | ISSUE: PC=000000ec | Op=00 | DestROB=14 | RD= 0
Time:               855000 | ISSUE: PC=000000f0 | Op=00 | DestROB=15 | RD= 0
[ISSUE ] Time: 855000, ROB_ID: 15, PC: 000000f0, OP:  0
[COMPL ] Time: 855000, ROB_ID: 1, Val: 00000000
RS: Issued op=10 rob_id= 3 to FU
[ISSUE ] Time: 865000, ROB_ID: 0, PC: 000000f4, OP:  0
[COMMIT] Time: 865000, ROB_ID: 1, PC: 000000b8, OP:  1
Time:               865000 | ISSUE: PC=000000f4 | Op=00 | DestROB= 0 | RD= 0
Time:               875000 | ISSUE: PC=000000f8 | Op=00 | DestROB= 1 | RD= 0
[ISSUE ] Time: 875000, ROB_ID: 1, PC: 000000f8, OP:  0
[COMMIT] Time: 875000, ROB_ID: 2, PC: 000000bc, OP: 10
[ISSUE ] Time: 885000, ROB_ID: 2, PC: 000000fc, OP:  0
[COMPL ] Time: 885000, ROB_ID: 3, Val: 00000000
Time:               885000 | ISSUE: PC=000000fc | Op=00 | DestROB= 2 | RD= 0
Time:               915000 | ISSUE: PC=000000c8 | Op=07 | DestROB= 0 | RD=11
[ISSUE ] Time: 915000, ROB_ID: 0, PC: 000000c8, OP:  7
RS: Issued op=07 rob_id= 0 to FU
[ISSUE ] Time: 925000, ROB_ID: 1, PC: 000000cc, OP:  3
Time:               925000 | ISSUE: PC=000000cc | Op=03 | DestROB= 1 | RD=12
Time:               935000 | ISSUE: PC=000000d0 | Op=11 | DestROB= 2 | RD=13
[ISSUE ] Time: 935000, ROB_ID: 2, PC: 000000d0, OP: 17
[ISSUE ] Time: 945000, ROB_ID: 3, PC: 000000d4, OP: 12
[COMPL ] Time: 945000, ROB_ID: 0, Val: 0000000a
Time:               945000 | ISSUE: PC=000000d4 | Op=0c | DestROB= 3 | RD= 0
Time:               955000 | ISSUE: PC=000000d8 | Op=00 | DestROB= 4 | RD= 0
[ISSUE ] Time: 955000, ROB_ID: 4, PC: 000000d8, OP:  0
[COMMIT] Time: 955000, ROB_ID: 0, PC: 000000c8, OP:  7
RS: Issued op=11 rob_id= 2 to FU
[ISSUE ] Time: 965000, ROB_ID: 5, PC: 000000dc, OP:  0
Time:               965000 | ISSUE: PC=000000dc | Op=00 | DestROB= 5 | RD= 0
Time:               975000 | ISSUE: PC=000000e0 | Op=00 | DestROB= 6 | RD= 0
[ISSUE ] Time: 975000, ROB_ID: 6, PC: 000000e0, OP:  0
[COMPL ] Time: 975000, ROB_ID: 2, Val: 00000000
RS: Issued op=03 rob_id= 1 to FU
[ISSUE ] Time: 985000, ROB_ID: 7, PC: 000000e4, OP:  0
Time:               985000 | ISSUE: PC=000000e4 | Op=00 | DestROB= 7 | RD= 0
Time:               995000 | ISSUE: PC=000000e8 | Op=00 | DestROB= 8 | RD= 0
[ISSUE ] Time: 995000, ROB_ID: 8, PC: 000000e8, OP:  0
[ISSUE ] Time: 1005000, ROB_ID: 9, PC: 000000ec, OP:  0
[COMPL ] Time: 1005000, ROB_ID: 1, Val: 00000014
Time:              1005000 | ISSUE: PC=000000ec | Op=00 | DestROB= 9 | RD= 0
Time:              1015000 | ISSUE: PC=000000f0 | Op=00 | DestROB=10 | RD= 0
[ISSUE ] Time: 1015000, ROB_ID: 10, PC: 000000f0, OP:  0
[COMMIT] Time: 1015000, ROB_ID: 1, PC: 000000cc, OP:  3
RS: Issued op=0c rob_id= 3 to FU
Time:              1025000 | ISSUE: PC=000000f4 | Op=00 | DestROB=11 | RD= 0
[COMPL ] Time: 1035000, ROB_ID: 3, Val: 000000d8
[ISSUE ] Time: 1045000, ROB_ID: 0, PC: 000000bc, OP: 10
Time:              1045000 | ISSUE: PC=000000bc | Op=0a | DestROB= 0 | RD=13
Time:              1055000 | ISSUE: PC=000000c0 | Op=10 | DestROB= 1 | RD= 8
[ISSUE ] Time: 1055000, ROB_ID: 1, PC: 000000c0, OP: 16
RS: Issued op=0a rob_id= 0 to FU
[ISSUE ] Time: 1065000, ROB_ID: 2, PC: 000000c8, OP:  7
Time:              1065000 | ISSUE: PC=000000c8 | Op=07 | DestROB= 2 | RD=11
Time:              1075000 | ISSUE: PC=000000cc | Op=03 | DestROB= 3 | RD=12
[ISSUE ] Time: 1075000, ROB_ID: 3, PC: 000000cc, OP:  3
[COMPL ] Time: 1075000, ROB_ID: 0, Val: 00000000
RS: Issued op=07 rob_id= 2 to FU
[ISSUE ] Time: 1085000, ROB_ID: 4, PC: 000000d0, OP: 17
[COMMIT] Time: 1085000, ROB_ID: 0, PC: 000000bc, OP: 10
Time:              1085000 | ISSUE: PC=000000d0 | Op=11 | DestROB= 4 | RD=13
Time:              1095000 | ISSUE: PC=000000bc | Op=0a | DestROB= 5 | RD=13
[ISSUE ] Time: 1095000, ROB_ID: 5, PC: 000000bc, OP: 10
[ISSUE ] Time: 1105000, ROB_ID: 6, PC: 000000c0, OP: 16
[COMPL ] Time: 1105000, ROB_ID: 2, Val: 00000005
Time:              1105000 | ISSUE: PC=000000c0 | Op=10 | DestROB= 6 | RD= 8
Time:              1115000 | ISSUE: PC=000000c8 | Op=07 | DestROB= 7 | RD=11
[ISSUE ] Time: 1115000, ROB_ID: 7, PC: 000000c8, OP:  7
RS: Issued op=0a rob_id= 5 to FU
[ISSUE ] Time: 1125000, ROB_ID: 8, PC: 000000cc, OP:  3
Time:              1125000 | ISSUE: PC=000000cc | Op=03 | DestROB= 8 | RD=12
Time:              1135000 | ISSUE: PC=000000d0 | Op=11 | DestROB= 9 | RD=13
[ISSUE ] Time: 1135000, ROB_ID: 9, PC: 000000d0, OP: 17
[COMPL ] Time: 1135000, ROB_ID: 5, Val: 00000001
RS: Issued op=10 rob_id= 1 to FU
[ISSUE ] Time: 1145000, ROB_ID: 10, PC: 000000bc, OP: 10
Time:              1145000 | ISSUE: PC=000000bc | Op=0a | DestROB=10 | RD=13
Time:              1155000 | ISSUE: PC=000000c0 | Op=10 | DestROB=11 | RD= 8
[ISSUE ] Time: 1155000, ROB_ID: 11, PC: 000000c0, OP: 16
[COMPL ] Time: 1165000, ROB_ID: 1, Val: 00000000
[COMMIT] Time: 1175000, ROB_ID: 1, PC: 000000c0, OP: 16
RS: Issued op=03 rob_id= 3 to FU
[ISSUE ] Time: 1185000, ROB_ID: 12, PC: 000000c8, OP:  7
[COMMIT] Time: 1185000, ROB_ID: 2, PC: 000000c8, OP:  7
Time:              1185000 | ISSUE: PC=000000c8 | Op=07 | DestROB=12 | RD=11
[COMPL ] Time: 1195000, ROB_ID: 3, Val: 00000028
RS: Issued op=03 rob_id= 8 to FU
[COMMIT] Time: 1205000, ROB_ID: 3, PC: 000000cc, OP:  3
Time:              1215000 | ISSUE: PC=000000cc | Op=03 | DestROB=13 | RD=12
[ISSUE ] Time: 1215000, ROB_ID: 13, PC: 000000cc, OP:  3
[COMPL ] Time: 1225000, ROB_ID: 8, Val: 00000050
RS: Issued op=03 rob_id=13 to FU
[ISSUE ] Time: 1245000, ROB_ID: 14, PC: 000000d0, OP: 17
Time:              1245000 | ISSUE: PC=000000d0 | Op=11 | DestROB=14 | RD=13
[COMPL ] Time: 1255000, ROB_ID: 13, Val: 000000a0
RS: Issued op=11 rob_id= 4 to FU
Time:              1275000 | ISSUE: PC=000000bc | Op=0a | DestROB=15 | RD=13
[ISSUE ] Time: 1275000, ROB_ID: 15, PC: 000000bc, OP: 10
[COMPL ] Time: 1285000, ROB_ID: 4, Val: 00000000
[COMMIT] Time: 1295000, ROB_ID: 4, PC: 000000d0, OP: 17
RS: Issued op=10 rob_id= 6 to FU
[ISSUE ] Time: 1305000, ROB_ID: 0, PC: 000000c0, OP: 16
[COMMIT] Time: 1305000, ROB_ID: 5, PC: 000000bc, OP: 10
Time:              1305000 | ISSUE: PC=000000c0 | Op=10 | DestROB= 0 | RD= 8
[COMPL ] Time: 1315000, ROB_ID: 6, Val: 00000000
[ISSUE ] Time: 1345000, ROB_ID: 0, PC: 000000c4, OP:  1
Time:              1345000 | ISSUE: PC=000000c4 | Op=01 | DestROB= 0 | RD=10
Time:              1355000 | ISSUE: PC=000000c8 | Op=07 | DestROB= 1 | RD=11
[ISSUE ] Time: 1355000, ROB_ID: 1, PC: 000000c8, OP:  7
RS: Issued op=01 rob_id= 0 to FU
[ISSUE ] Time: 1365000, ROB_ID: 2, PC: 000000cc, OP:  3
Time:              1365000 | ISSUE: PC=000000cc | Op=03 | DestROB= 2 | RD=12
Time:              1375000 | ISSUE: PC=000000d0 | Op=11 | DestROB= 3 | RD=13
[ISSUE ] Time: 1375000, ROB_ID: 3, PC: 000000d0, OP: 17
[COMPL ] Time: 1375000, ROB_ID: 0, Val: 00000028
RS: Issued op=03 rob_id= 2 to FU
[ISSUE ] Time: 1385000, ROB_ID: 4, PC: 000000bc, OP: 10
[COMMIT] Time: 1385000, ROB_ID: 0, PC: 000000c4, OP:  1
Time:              1385000 | ISSUE: PC=000000bc | Op=0a | DestROB= 4 | RD=13
Time:              1395000 | ISSUE: PC=000000c0 | Op=10 | DestROB= 5 | RD= 8
[ISSUE ] Time: 1395000, ROB_ID: 5, PC: 000000c0, OP: 16
[ISSUE ] Time: 1405000, ROB_ID: 6, PC: 000000c8, OP:  7
[COMPL ] Time: 1405000, ROB_ID: 2, Val: 00000050
Time:              1405000 | ISSUE: PC=000000c8 | Op=07 | DestROB= 6 | RD=11
Time:              1415000 | ISSUE: PC=000000cc | Op=03 | DestROB= 7 | RD=12
[ISSUE ] Time: 1415000, ROB_ID: 7, PC: 000000cc, OP:  3
RS: Issued op=07 rob_id= 1 to FU
[ISSUE ] Time: 1425000, ROB_ID: 8, PC: 000000d0, OP: 17
Time:              1425000 | ISSUE: PC=000000d0 | Op=11 | DestROB= 8 | RD=13
Time:              1435000 | ISSUE: PC=000000bc | Op=0a | DestROB= 9 | RD=13
[ISSUE ] Time: 1435000, ROB_ID: 9, PC: 000000bc, OP: 10
[COMPL ] Time: 1435000, ROB_ID: 1, Val: 00000002
RS: Issued op=11 rob_id= 3 to FU
[ISSUE ] Time: 1445000, ROB_ID: 10, PC: 000000c0, OP: 16
[COMMIT] Time: 1445000, ROB_ID: 1, PC: 000000c8, OP:  7
Time:              1445000 | ISSUE: PC=000000c0 | Op=10 | DestROB=10 | RD= 8
Time:              1455000 | ISSUE: PC=000000c8 | Op=07 | DestROB=11 | RD=11
[ISSUE ] Time: 1455000, ROB_ID: 11, PC: 000000c8, OP:  7
[COMMIT] Time: 1455000, ROB_ID: 2, PC: 000000cc, OP:  3
[COMPL ] Time: 1465000, ROB_ID: 3, Val: 00000000
[COMMIT] Time: 1475000, ROB_ID: 3, PC: 000000d0, OP: 17
RS: Issued op=0a rob_id= 4 to FU
[ISSUE ] Time: 1485000, ROB_ID: 12, PC: 000000cc, OP:  3
Time:              1485000 | ISSUE: PC=000000cc | Op=03 | DestROB=12 | RD=12
[COMPL ] Time: 1495000, ROB_ID: 4, Val: 00000000
RS: Issued op=10 rob_id= 5 to FU
[COMMIT] Time: 1505000, ROB_ID: 4, PC: 000000bc, OP: 10
Time:              1515000 | ISSUE: PC=000000d0 | Op=11 | DestROB=13 | RD=13
[ISSUE ] Time: 1515000, ROB_ID: 13, PC: 000000d0, OP: 17
[COMPL ] Time: 1525000, ROB_ID: 5, Val: 00000000
[COMMIT] Time: 1535000, ROB_ID: 5, PC: 000000c0, OP: 16
RS: Issued op=07 rob_id= 6 to FU
[ISSUE ] Time: 1545000, ROB_ID: 14, PC: 000000bc, OP: 10
Time:              1545000 | ISSUE: PC=000000bc | Op=0a | DestROB=14 | RD=13
[COMPL ] Time: 1555000, ROB_ID: 6, Val: 00000001
RS: Issued op=11 rob_id= 8 to FU
[COMMIT] Time: 1565000, ROB_ID: 6, PC: 000000c8, OP:  7
Time:              1575000 | ISSUE: PC=000000c0 | Op=10 | DestROB=15 | RD= 8
[ISSUE ] Time: 1575000, ROB_ID: 15, PC: 000000c0, OP: 16
[COMPL ] Time: 1585000, ROB_ID: 8, Val: 00000000
RS: Issued op=07 rob_id=11 to FU
[ISSUE ] Time: 1605000, ROB_ID: 0, PC: 000000c8, OP:  7
Time:              1605000 | ISSUE: PC=000000c8 | Op=07 | DestROB= 0 | RD=11
[COMPL ] Time: 1615000, ROB_ID: 11, Val: 00000000
RS: Issued op=11 rob_id=13 to FU
Time:              1635000 | ISSUE: PC=000000cc | Op=03 | DestROB= 1 | RD=12
[ISSUE ] Time: 1635000, ROB_ID: 1, PC: 000000cc, OP:  3
[COMPL ] Time: 1645000, ROB_ID: 13, Val: 00000000
RS: Issued op=07 rob_id= 0 to FU
[ISSUE ] Time: 1665000, ROB_ID: 2, PC: 000000d0, OP: 17
Time:              1665000 | ISSUE: PC=000000d0 | Op=11 | DestROB= 2 | RD=13
[COMPL ] Time: 1675000, ROB_ID: 0, Val: 00000000
RS: Issued op=11 rob_id= 2 to FU
Time:              1695000 | ISSUE: PC=000000bc | Op=0a | DestROB= 3 | RD=13
[ISSUE ] Time: 1695000, ROB_ID: 3, PC: 000000bc, OP: 10
[COMPL ] Time: 1705000, ROB_ID: 2, Val: 00000000
RS: Issued op=0a rob_id= 3 to FU
[ISSUE ] Time: 1725000, ROB_ID: 4, PC: 000000c0, OP: 16
Time:              1725000 | ISSUE: PC=000000c0 | Op=10 | DestROB= 4 | RD= 8
[COMPL ] Time: 1735000, ROB_ID: 3, Val: 00000000
RS: Issued op=10 rob_id= 4 to FU
Time:              1755000 | ISSUE: PC=000000c8 | Op=07 | DestROB= 5 | RD=11
[ISSUE ] Time: 1755000, ROB_ID: 5, PC: 000000c8, OP:  7
[COMPL ] Time: 1765000, ROB_ID: 4, Val: 00000000
RS: Issued op=07 rob_id= 5 to FU
[ISSUE ] Time: 1785000, ROB_ID: 6, PC: 000000cc, OP:  3
Time:              1785000 | ISSUE: PC=000000cc | Op=03 | DestROB= 6 | RD=12
[COMPL ] Time: 1795000, ROB_ID: 5, Val: 00000000
RS: Issued op=0a rob_id=14 to FU
[COMPL ] Time: 1825000, ROB_ID: 14, Val: 00000000
RS: Issued op=10 rob_id=15 to FU
[COMPL ] Time: 1855000, ROB_ID: 15, Val: 00000000
RS: Issued op=03 rob_id= 7 to FU
[COMPL ] Time: 1885000, ROB_ID: 7, Val: 000000a0
[COMMIT] Time: 1895000, ROB_ID: 7, PC: 000000cc, OP:  3
RS: Issued op=03 rob_id=12 to FU
[ISSUE ] Time: 1905000, ROB_ID: 7, PC: 000000d0, OP: 17
[COMMIT] Time: 1905000, ROB_ID: 8, PC: 000000d0, OP: 17
Time:              1905000 | ISSUE: PC=000000d0 | Op=11 | DestROB= 7 | RD=13
Time:              1915000 | ISSUE: PC=000000bc | Op=0a | DestROB= 8 | RD=13
[ISSUE ] Time: 1915000, ROB_ID: 8, PC: 000000bc, OP: 10
[COMPL ] Time: 1915000, ROB_ID: 12, Val: 00000140
RS: Issued op=03 rob_id= 1 to FU
[COMPL ] Time: 1945000, ROB_ID: 1, Val: 00000280
RS: Issued op=11 rob_id= 7 to FU
[COMPL ] Time: 1975000, ROB_ID: 7, Val: 00000000
RS: Issued op=03 rob_id= 6 to FU
[COMPL ] Time: 2005000, ROB_ID: 6, Val: 00000500
RS: Issued op=0a rob_id= 8 to FU
[COMPL ] Time: 2035000, ROB_ID: 8, Val: 00000000
RS: Issued op=0a rob_id= 9 to FU
[COMPL ] Time: 2065000, ROB_ID: 9, Val: 00000001
[COMMIT] Time: 2075000, ROB_ID: 9, PC: 000000bc, OP: 10
RS: Issued op=10 rob_id=10 to FU
[ISSUE ] Time: 2085000, ROB_ID: 9, PC: 000000c0, OP: 16
Time:              2085000 | ISSUE: PC=000000c0 | Op=10 | DestROB= 9 | RD= 8
[COMPL ] Time: 2095000, ROB_ID: 10, Val: 00000000
[ISSUE ] Time: 2125000, ROB_ID: 0, PC: 000000c4, OP:  1
Time:              2125000 | ISSUE: PC=000000c4 | Op=01 | DestROB= 0 | RD=10
Time:              2135000 | ISSUE: PC=000000c8 | Op=07 | DestROB= 1 | RD=11
[ISSUE ] Time: 2135000, ROB_ID: 1, PC: 000000c8, OP:  7
RS: Issued op=01 rob_id= 0 to FU
[ISSUE ] Time: 2145000, ROB_ID: 2, PC: 000000cc, OP:  3
Time:              2145000 | ISSUE: PC=000000cc | Op=03 | DestROB= 2 | RD=12
Time:              2155000 | ISSUE: PC=000000d0 | Op=11 | DestROB= 3 | RD=13
[ISSUE ] Time: 2155000, ROB_ID: 3, PC: 000000d0, OP: 17
[COMPL ] Time: 2155000, ROB_ID: 0, Val: 000000c8
RS: Issued op=03 rob_id= 2 to FU
[ISSUE ] Time: 2165000, ROB_ID: 4, PC: 000000bc, OP: 10
[COMMIT] Time: 2165000, ROB_ID: 0, PC: 000000c4, OP:  1
Time:              2165000 | ISSUE: PC=000000bc | Op=0a | DestROB= 4 | RD=13
Time:              2175000 | ISSUE: PC=000000c0 | Op=10 | DestROB= 5 | RD= 8
