tomasulo_cpu.vcd
$date
	Tue Jan 13 12:13:58 2026
$end
$version
	Icarus Verilog
$end
$timescale
	1ps
$end
$scope module testbench $end
$var wire 32 ! mem_data_i [31:0] $end
$var wire 32 " word_addr [31:0] $end
$var wire 1 # mem_we_o $end
$var wire 4 $ mem_sel_o [3:0] $end
$var wire 1 % mem_req_o $end
$var wire 32 & mem_data_o [31:0] $end
$var wire 32 ' mem_addr_o [31:0] $end
$var wire 32 ( inst_i [31:0] $end
$var wire 1 ) inst_ce_o $end
$var wire 32 * inst_addr_o [31:0] $end
$var reg 1 + clk $end
$var reg 1 , mem_ready_i $end
$var reg 1 - mem_valid_i $end
$var reg 1 . rst $end
$var integer 32 / i [31:0] $end
$scope module u_cpu $end
$var wire 1 + clk $end
$var wire 1 0 flush $end
$var wire 32 1 flush_addr [31:0] $end
$var wire 32 2 inst_i [31:0] $end
$var wire 1 3 is_jal_retiring $end
$var wire 32 4 mem_data_i [31:0] $end
$var wire 1 , mem_ready_i $end
$var wire 1 - mem_valid_i $end
$var wire 1 5 real_flush $end
$var wire 1 6 reg_commit_we $end
$var wire 1 . rst $end
$var wire 1 7 rs_alu_we $end
$var wire 32 8 rs_alu_vk [31:0] $end
$var wire 32 9 rs_alu_vj [31:0] $end
$var wire 1 : rs_alu_qk_valid $end
$var wire 4 ; rs_alu_qk [3:0] $end
$var wire 1 < rs_alu_qj_valid $end
$var wire 4 = rs_alu_qj [3:0] $end
$var wire 32 > rs_alu_pred_target [31:0] $end
$var wire 32 ? rs_alu_pc [31:0] $end
$var wire 5 @ rs_alu_op [4:0] $end
$var wire 32 A rs_alu_imm [31:0] $end
$var wire 1 B rs_alu_full $end
$var wire 4 C rs_alu_dest [3:0] $end
$var wire 32 D rob_query2_value [31:0] $end
$var wire 1 E rob_query2_ready $end
$var wire 4 F rob_query2_id [3:0] $end
$var wire 32 G rob_query1_value [31:0] $end
$var wire 1 H rob_query1_ready $end
$var wire 4 I rob_query1_id [3:0] $end
$var wire 1 J rob_full $end
$var wire 1 K rob_alloc_req $end
$var wire 5 L rob_alloc_rd [4:0] $end
$var wire 32 M rob_alloc_pred_target [31:0] $end
$var wire 1 N rob_alloc_pred $end
$var wire 32 O rob_alloc_pc [31:0] $end
$var wire 5 P rob_alloc_op [4:0] $end
$var wire 4 Q rob_alloc_id [3:0] $end
$var wire 1 R rf_re2 $end
$var wire 1 S rf_re1 $end
$var wire 32 T rf_rdata2 [31:0] $end
$var wire 32 U rf_rdata1 [31:0] $end
$var wire 5 V rf_raddr2 [4:0] $end
$var wire 5 W rf_raddr1 [4:0] $end
$var wire 1 X rat_we $end
$var wire 1 Y rat_rs2_valid $end
$var wire 4 Z rat_rs2_rob_id [3:0] $end
$var wire 5 [ rat_rs2 [4:0] $end
$var wire 1 \ rat_rs1_valid $end
$var wire 4 ] rat_rs1_rob_id [3:0] $end
$var wire 5 ^ rat_rs1 [4:0] $end
$var wire 4 _ rat_rob_id [3:0] $end
$var wire 5 ` rat_rd [4:0] $end
$var wire 1 # mem_we_o $end
$var wire 4 a mem_sel_o [3:0] $end
$var wire 1 % mem_req_o $end
$var wire 32 b mem_data_o [31:0] $end
$var wire 32 c mem_addr_o [31:0] $end
$var wire 32 d lsb_vk [31:0] $end
$var wire 32 e lsb_vj [31:0] $end
$var wire 3 f lsb_sub_op [2:0] $end
$var wire 1 g lsb_qk_valid $end
$var wire 4 h lsb_qk [3:0] $end
$var wire 1 i lsb_qj_valid $end
$var wire 4 j lsb_qj [3:0] $end
$var wire 32 k lsb_pc [31:0] $end
$var wire 5 l lsb_op [4:0] $end
$var wire 32 m lsb_imm [31:0] $end
$var wire 1 n lsb_grant $end
$var wire 1 o lsb_full $end
$var wire 1 p lsb_dispatch_we $end
$var wire 4 q lsb_dest [3:0] $end
$var wire 32 r lsb_arb_val [31:0] $end
$var wire 1 s lsb_arb_req $end
$var wire 4 t lsb_arb_dest [3:0] $end
$var wire 1 u issue_re $end
$var wire 32 v issue_pc [31:0] $end
$var wire 32 w issue_inst [31:0] $end
$var wire 1 x iq_full $end
$var wire 1 y iq_empty $end
$var wire 1 ) inst_ce_o $end
$var wire 32 z inst_addr_o [31:0] $end
$var wire 32 { ex_alu_vk [31:0] $end
$var wire 32 | ex_alu_vj [31:0] $end
$var wire 1 } ex_alu_valid $end
$var wire 32 ~ ex_alu_pred_target [31:0] $end
$var wire 32 !" ex_alu_pc [31:0] $end
$var wire 5 "" ex_alu_op [4:0] $end
$var wire 32 #" ex_alu_imm [31:0] $end
$var wire 4 $" ex_alu_dest [3:0] $end
$var wire 32 %" commit_value [31:0] $end
$var wire 1 &" commit_valid $end
$var wire 5 '" commit_rd [4:0] $end
$var wire 32 (" commit_pred_target [31:0] $end
$var wire 1 )" commit_pred $end
$var wire 32 *" commit_pc [31:0] $end
$var wire 1 +" commit_outcome $end
$var wire 5 ," commit_op [4:0] $end
$var wire 4 -" commit_id [3:0] $end
$var wire 32 ." commit_addr [31:0] $end
$var wire 32 /" cdb_value [31:0] $end
$var wire 1 0" cdb_valid $end
$var wire 4 1" cdb_rob_id [3:0] $end
$var wire 1 2" cdb_branch_outcome $end
$var wire 32 3" cdb_addr [31:0] $end
$var wire 32 4" alu_out_value [31:0] $end
$var wire 1 5" alu_out_valid $end
$var wire 32 6" alu_out_target [31:0] $end
$var wire 4 7" alu_out_rob_id [3:0] $end
$var wire 1 8" alu_out_outcome $end
$var wire 1 9" alu_grant $end
$var wire 1 :" alu_fu_ready $end
$scope module u_alu $end
$var wire 1 + clk $end
$var wire 1 . rst $end
$var wire 32 ;" vk_i [31:0] $end
$var wire 32 <" vj_i [31:0] $end
$var wire 1 } valid_i $end
$var wire 32 =" pred_target_i [31:0] $end
$var wire 32 >" pc_i [31:0] $end
$var wire 5 ?" op_i [4:0] $end
$var wire 32 @" imm_i [31:0] $end
$var wire 4 A" dest_i [3:0] $end
$var wire 1 9" cdb_grant_i $end
$var reg 1 8" branch_outcome_o $end
$var reg 32 B" result [31:0] $end
$var reg 4 C" rob_id_o [3:0] $end
$var reg 1 D" taken $end
$var reg 32 E" target [31:0] $end
$var reg 32 F" target_addr_o [31:0] $end
$var reg 1 5" valid_o $end
$var reg 32 G" value_o [31:0] $end
$upscope $end
$scope module u_cdb_arbiter $end
$var wire 32 H" alu_addr [31:0] $end
$var wire 1 8" alu_branch_outcome $end
$var wire 4 I" alu_rob_id [3:0] $end
$var wire 1 5" alu_valid $end
$var wire 32 J" alu_value [31:0] $end
$var wire 1 + clk $end
$var wire 1 . rst $end
$var wire 32 K" lsb_value [31:0] $end
$var wire 1 s lsb_valid $end
$var wire 4 L" lsb_rob_id [3:0] $end
$var reg 1 9" alu_grant $end
$var reg 32 M" cdb_addr [31:0] $end
$var reg 1 2" cdb_branch_outcome $end
$var reg 4 N" cdb_rob_id [3:0] $end
$var reg 1 0" cdb_valid $end
$var reg 32 O" cdb_value [31:0] $end
$var reg 1 n lsb_grant $end
$upscope $end
$scope module u_fetch_unit $end
$var wire 1 + clk $end
$var wire 1 5 flush $end
$var wire 32 P" flush_addr [31:0] $end
$var wire 32 Q" inst_addr_o [31:0] $end
$var wire 1 ) inst_ce_o $end
$var wire 32 R" inst_i [31:0] $end
$var wire 1 S" iq_we $end
$var wire 1 x issue_full $end
$var wire 1 T" pc_stall $end
$var wire 1 . rst $end
$var wire 32 U" pc_wire [31:0] $end
$var wire 1 V" pc_ce $end
$var wire 1 u issue_re $end
$var wire 32 W" issue_pc_o [31:0] $end
$var wire 32 X" issue_inst_o [31:0] $end
$var wire 1 y issue_empty $end
$var wire 1 Y" iq_full $end
$scope module u_iq $end
$var wire 1 + clk $end
$var wire 1 5 flush $end
$var wire 32 Z" inst_i [31:0] $end
$var wire 32 [" inst_o [31:0] $end
$var wire 32 \" pc_o [31:0] $end
$var wire 1 . rst $end
$var wire 1 S" we $end
$var wire 1 u re $end
$var wire 32 ]" pc_i [31:0] $end
$var wire 1 Y" full $end
$var wire 1 y empty $end
$var parameter 32 ^" PTR_WIDTH $end
$var parameter 32 _" SIZE $end
$var reg 4 `" count [3:0] $end
$var reg 3 a" r_ptr [2:0] $end
$var reg 3 b" w_ptr [2:0] $end
$upscope $end
$scope module u_pc_reg $end
$var wire 1 + clk $end
$var wire 1 5 flush $end
$var wire 32 c" flush_addr [31:0] $end
$var wire 1 d" pred_taken $end
$var wire 32 e" pred_target [31:0] $end
$var wire 1 . rst $end
$var wire 1 T" stall $end
$var reg 1 V" ce $end
$var reg 32 f" pc [31:0] $end
$upscope $end
$upscope $end
$scope module u_issue_unit $end
$var wire 1 + clk $end
$var wire 1 5 flush $end
$var wire 1 y iq_empty $end
$var wire 32 g" iq_inst [31:0] $end
$var wire 32 h" iq_pc [31:0] $end
$var wire 1 . rst $end
$var wire 1 i" use_alu_rs $end
$var wire 1 j" use_lsb $end
$var wire 1 B rs_alu_full $end
$var wire 5 k" rs2 [4:0] $end
$var wire 5 l" rs1 [4:0] $end
$var wire 32 m" rob_query2_value [31:0] $end
$var wire 1 E rob_query2_ready $end
$var wire 32 n" rob_query1_value [31:0] $end
$var wire 1 H rob_query1_ready $end
$var wire 1 J rob_full $end
$var wire 4 o" rob_alloc_id [3:0] $end
$var wire 32 p" rf_rdata2 [31:0] $end
$var wire 32 q" rf_rdata1 [31:0] $end
$var wire 5 r" rd [4:0] $end
$var wire 1 Y rat_rs2_valid $end
$var wire 4 s" rat_rs2_rob_id [3:0] $end
$var wire 1 \ rat_rs1_valid $end
$var wire 4 t" rat_rs1_rob_id [3:0] $end
$var wire 7 u" opcode [6:0] $end
$var wire 1 o lsb_full $end
$var wire 7 v" funct7 [6:0] $end
$var wire 3 w" funct3 [2:0] $end
$var reg 5 x" alu_op [4:0] $end
$var reg 32 y" imm [31:0] $end
$var reg 1 u iq_re $end
$var reg 1 z" is_alu $end
$var reg 1 {" is_auipc $end
$var reg 1 |" is_branch $end
$var reg 1 }" is_jal $end
$var reg 1 ~" is_jalr $end
$var reg 1 !# is_load $end
$var reg 1 "# is_lui $end
$var reg 1 ## is_store $end
$var reg 1 $# is_system $end
$var reg 4 %# lsb_dest [3:0] $end
$var reg 32 &# lsb_imm [31:0] $end
$var reg 5 '# lsb_op [4:0] $end
$var reg 32 (# lsb_pc [31:0] $end
$var reg 4 )# lsb_qj [3:0] $end
$var reg 1 i lsb_qj_valid $end
$var reg 4 *# lsb_qk [3:0] $end
$var reg 1 g lsb_qk_valid $end
$var reg 3 +# lsb_sub_op [2:0] $end
$var reg 32 ,# lsb_vj [31:0] $end
$var reg 32 -# lsb_vk [31:0] $end
$var reg 1 p lsb_we $end
$var reg 5 .# rat_rd [4:0] $end
$var reg 4 /# rat_rob_id [3:0] $end
$var reg 5 0# rat_rs1 [4:0] $end
$var reg 5 1# rat_rs2 [4:0] $end
$var reg 1 X rat_we $end
$var reg 5 2# rf_raddr1 [4:0] $end
$var reg 5 3# rf_raddr2 [4:0] $end
$var reg 1 S rf_re1 $end
$var reg 1 R rf_re2 $end
$var reg 5 4# rob_alloc_op [4:0] $end
$var reg 32 5# rob_alloc_pc [31:0] $end
$var reg 1 N rob_alloc_pred $end
$var reg 32 6# rob_alloc_pred_target [31:0] $end
$var reg 5 7# rob_alloc_rd [4:0] $end
$var reg 1 K rob_alloc_req $end
$var reg 4 8# rob_query1_id [3:0] $end
$var reg 4 9# rob_query2_id [3:0] $end
$var reg 4 :# rs_alu_dest [3:0] $end
$var reg 32 ;# rs_alu_imm [31:0] $end
$var reg 5 <# rs_alu_op [4:0] $end
$var reg 32 =# rs_alu_pc [31:0] $end
$var reg 32 ># rs_alu_pred_target [31:0] $end
$var reg 4 ?# rs_alu_qj [3:0] $end
$var reg 1 < rs_alu_qj_valid $end
$var reg 4 @# rs_alu_qk [3:0] $end
$var reg 1 : rs_alu_qk_valid $end
$var reg 32 A# rs_alu_vj [31:0] $end
$var reg 32 B# rs_alu_vk [31:0] $end
$var reg 1 7 rs_alu_we $end
$var reg 1 C# stall $end
$upscope $end
$scope module u_lsb $end
$var wire 1 n cdb_grant $end
$var wire 4 D# cdb_rob_id [3:0] $end
$var wire 1 0" cdb_valid $end
$var wire 32 E# cdb_value [31:0] $end
$var wire 1 + clk $end
$var wire 4 F# dest [3:0] $end
$var wire 1 5 flush $end
$var wire 32 G# head_store_val [31:0] $end
$var wire 32 H# imm [31:0] $end
$var wire 32 I# mem_data [31:0] $end
$var wire 1 , mem_ready $end
$var wire 5 J# op [4:0] $end
$var wire 32 K# pc [31:0] $end
$var wire 4 L# qj [3:0] $end
$var wire 1 i qj_valid $end
$var wire 4 M# qk [3:0] $end
$var wire 1 g qk_valid $end
$var wire 1 . rst $end
$var wire 3 N# sub_op [2:0] $end
$var wire 32 O# vj [31:0] $end
$var wire 32 P# vk [31:0] $end
$var wire 1 p we $end
$var wire 32 Q# head_addr [31:0] $end
$var wire 1 o full $end
$var wire 1 R# empty $end
$var parameter 32 S# IDLE $end
$var parameter 32 T# SIZE $end
$var parameter 32 U# WAIT_CDB $end
$var parameter 32 V# WAIT_MEM $end
$var reg 4 W# count [3:0] $end
$var reg 32 X# final_data [31:0] $end
$var reg 3 Y# head [2:0] $end
$var reg 32 Z# load_result [31:0] $end
$var reg 4 [# lsb_out_rob_id [3:0] $end
$var reg 1 s lsb_out_valid $end
$var reg 32 \# lsb_out_value [31:0] $end
$var reg 32 ]# mem_addr [31:0] $end
$var reg 4 ^# mem_mask [3:0] $end
$var reg 1 % mem_req $end
$var reg 32 _# mem_wdata [31:0] $end
$var reg 1 # mem_we $end
$var reg 8 `# qj_valid_buf [7:0] $end
$var reg 8 a# qk_valid_buf [7:0] $end
$var reg 32 b# raw_data [31:0] $end
$var reg 2 c# state [1:0] $end
$var reg 3 d# tail [2:0] $end
$var reg 8 e# valid [7:0] $end
$var integer 32 f# i [31:0] $end
$upscope $end
$scope module u_rat $end
$var wire 1 + clk $end
$var wire 1 6 commit_we $end
$var wire 1 5 flush $end
$var wire 5 g# rs1_addr [4:0] $end
$var wire 4 h# rs1_rob_id [3:0] $end
$var wire 5 i# rs2_addr [4:0] $end
$var wire 4 j# rs2_rob_id [3:0] $end
$var wire 1 . rst $end
$var wire 5 k# rw_addr [4:0] $end
$var wire 1 X we $end
$var wire 4 l# write_rob_id [3:0] $end
$var wire 1 Y rs2_valid $end
$var wire 1 \ rs1_valid $end
$var wire 4 m# commit_rob_id [3:0] $end
$var wire 5 n# commit_addr [4:0] $end
$var reg 32 o# map_valid [31:0] $end
$upscope $end
$scope module u_regfile $end
$var wire 1 + clk $end
$var wire 5 p# raddr1 [4:0] $end
$var wire 5 q# raddr2 [4:0] $end
$var wire 1 S re1 $end
$var wire 1 R re2 $end
$var wire 1 . rst $end
$var wire 1 6 we $end
$var wire 32 r# wdata [31:0] $end
$var wire 5 s# waddr [4:0] $end
$var reg 32 t# rdata1 [31:0] $end
$var reg 32 u# rdata2 [31:0] $end
$var integer 32 v# i [31:0] $end
$upscope $end
$scope module u_rob $end
$var wire 4 w# alloc_id_o [3:0] $end
$var wire 5 x# alloc_op [4:0] $end
$var wire 32 y# alloc_pc [31:0] $end
$var wire 1 N alloc_pred $end
$var wire 32 z# alloc_pred_target [31:0] $end
$var wire 5 {# alloc_rd [4:0] $end
$var wire 1 K alloc_req $end
$var wire 32 |# cdb_addr [31:0] $end
$var wire 1 2" cdb_branch_outcome $end
$var wire 4 }# cdb_rob_id [3:0] $end
$var wire 1 0" cdb_valid $end
$var wire 32 ~# cdb_value [31:0] $end
$var wire 1 + clk $end
$var wire 1 &" commit_ack $end
$var wire 32 !$ commit_addr_o [31:0] $end
$var wire 4 "$ commit_id_o [3:0] $end
$var wire 5 #$ commit_op_o [4:0] $end
$var wire 1 +" commit_outcome_o $end
$var wire 32 $$ commit_pc_o [31:0] $end
$var wire 1 )" commit_pred_o $end
$var wire 32 %$ commit_pred_target_o [31:0] $end
$var wire 5 &$ commit_rd_o [4:0] $end
$var wire 1 &" commit_valid $end
$var wire 32 '$ commit_value_o [31:0] $end
$var wire 1 5 flush $end
$var wire 4 ($ query1_id [3:0] $end
$var wire 1 H query1_ready $end
$var wire 32 )$ query1_value [31:0] $end
$var wire 4 *$ query2_id [3:0] $end
$var wire 1 E query2_ready $end
$var wire 32 +$ query2_value [31:0] $end
$var wire 1 . rst $end
$var wire 1 J full $end
$var wire 1 ,$ empty $end
$var reg 5 -$ count [4:0] $end
$var reg 4 .$ head [3:0] $end
$var reg 4 /$ tail [3:0] $end
$var integer 32 0$ i [31:0] $end
$upscope $end
$scope module u_rs_alu $end
$var wire 4 1$ cdb_rob_id [3:0] $end
$var wire 1 0" cdb_valid $end
$var wire 32 2$ cdb_value [31:0] $end
$var wire 1 + clk $end
$var wire 4 3$ dispatch_dest [3:0] $end
$var wire 32 4$ dispatch_imm [31:0] $end
$var wire 5 5$ dispatch_op [4:0] $end
$var wire 32 6$ dispatch_pc [31:0] $end
$var wire 32 7$ dispatch_pred_target [31:0] $end
$var wire 4 8$ dispatch_qj [3:0] $end
$var wire 1 < dispatch_qj_valid $end
$var wire 4 9$ dispatch_qk [3:0] $end
$var wire 1 : dispatch_qk_valid $end
$var wire 32 :$ dispatch_vj [31:0] $end
$var wire 32 ;$ dispatch_vk [31:0] $end
$var wire 1 7 dispatch_we $end
$var wire 1 5 flush $end
$var wire 1 :" fu_ready $end
$var wire 1 . rst $end
$var wire 1 B full $end
$var parameter 32 <$ SIZE $end
$var reg 32 =$ busy_count [31:0] $end
$var reg 4 >$ ex_dest [3:0] $end
$var reg 32 ?$ ex_imm [31:0] $end
$var reg 5 @$ ex_op [4:0] $end
$var reg 32 A$ ex_pc [31:0] $end
$var reg 32 B$ ex_pred_target [31:0] $end
$var reg 1 } ex_valid $end
$var reg 32 C$ ex_vj [31:0] $end
$var reg 32 D$ ex_vk [31:0] $end
$var reg 1 E$ found_free $end
$var reg 1 F$ found_ready $end
$var reg 32 G$ free_idx [31:0] $end
$var reg 32 H$ ready_idx [31:0] $end
$var integer 32 I$ i [31:0] $end
$upscope $end
$upscope $end
$upscope $end
$enddefinitions $end
$comment Show the parameter values. $end
$dumpall
b1000 <$
b1 V#
b10 U#
b1000 T#
b0 S#
b1000 _"
b11 ^"
$end
#0
$dumpvars
bx I$
bx H$
bx G$
xF$
xE$
bx D$
bx C$
bx B$
bx A$
bx @$
bx ?$
bx >$
bx =$
b0 ;$
b0 :$
b0 9$
b0 8$
b0 7$
bx 6$
bx 5$
bx 4$
bx 3$
bx 2$
bx 1$
bx 0$
bx /$
bx .$
bx -$
x,$
bx +$
bx *$
bx )$
bx ($
bx '$
bx &$
bx %$
bx $$
bx #$
bx "$
bx !$
bx ~#
bx }#
bx |#
bx {#
b0 z#
bx y#
bx x#
bx w#
bx v#
b0 u#
b0 t#
bx s#
bx r#
bx q#
bx p#
bx o#
bx n#
bx m#
bx l#
bx k#
bx j#
bx i#
bx h#
bx g#
bx f#
bx e#
bx d#
bx c#
bx b#
bx a#
bx `#
bx _#
bx ^#
bx ]#
bx \#
bx [#
bx Z#
bx Y#
bx X#
bx W#
xR#
bx Q#
b0 P#
b0 O#
bx N#
b0 M#
b0 L#
bx K#
bx J#
bx I#
bx H#
bx G#
bx F#
bx E#
bx D#
0C#
b0 B#
b0 A#
b0 @#
b0 ?#
b0 >#
bx =#
bx <#
bx ;#
bx :#
bx 9#
bx 8#
bx 7#
b0 6#
bx 5#
bx 4#
bx 3#
bx 2#
bx 1#
bx 0#
bx /#
bx .#
b0 -#
b0 ,#
bx +#
b0 *#
b0 )#
bx (#
bx '#
bx &#
bx %#
x$#
x##
x"#
x!#
x~"
x}"
x|"
x{"
xz"
bx y"
bx x"
bx w"
bx v"
bx u"
bx t"
bx s"
bx r"
b0 q"
b0 p"
bx o"
bx n"
bx m"
bx l"
bx k"
xj"
xi"
bx h"
bx g"
bx f"
b0 e"
0d"
bx c"
bx b"
bx a"
bx `"
bx ]"
bx \"
bx ["
bx Z"
xY"
bx X"
bx W"
xV"
bx U"
xT"
xS"
bx R"
bx Q"
bx P"
bx O"
bx N"
bx M"
bx L"
bx K"
bx J"
bx I"
bx H"
bx G"
bx F"
bx E"
xD"
bx C"
bx B"
bx A"
bx @"
bx ?"
bx >"
bx ="
bx <"
bx ;"
x:"
x9"
x8"
bx 7"
bx 6"
x5"
bx 4"
bx 3"
x2"
bx 1"
x0"
bx /"
bx ."
bx -"
bx ,"
x+"
bx *"
x)"
bx ("
bx '"
x&"
bx %"
bx $"
bx #"
bx ""
bx !"
bx ~
x}
bx |
bx {
bx z
xy
xx
bx w
bx v
0u
bx t
xs
bx r
bx q
0p
xo
xn
bx m
bx l
bx k
b0 j
0i
b0 h
0g
bx f
b0 e
b0 d
bx c
bx b
bx a
bx `
bx _
bx ^
bx ]
x\
bx [
bx Z
xY
0X
bx W
bx V
b0 U
b0 T
0S
0R
bx Q
bx P
bx O
0N
b0 M
bx L
0K
xJ
bx I
xH
bx G
bx F
xE
bx D
bx C
xB
bx A
bx @
bx ?
b0 >
b0 =
0<
b0 ;
0:
b0 9
b0 8
07
x6
x5
bx 4
x3
bx 2
bx 1
x0
b10000000000000000 /
1.
x-
x,
0+
bx *
x)
bx (
bx '
bx &
x%
bx $
x#
b0xxxxxxxxxxxxxxxxxxxxxxxxxxxxxx "
bx !
$end
#5000
06
05
0S"
00
b0 (
b0 2
b0 R"
b0 Z"
03
0&"
b0 H$
0F$
b0 G$
1E$
0D"
b0 E"
b0 B"
02"
b0 3"
b0 M"
b0 |#
b0 /"
b0 O"
b0 E#
b0 ~#
b0 2$
b0 1"
b0 N"
b0 D#
b0 }#
b0 1$
00"
0n
09"
b0 q
b0 %#
b0 F#
b0 C
b0 :#
b0 3$
b0 _
b0 /#
b0 l#
0)
0V"
0x
0T"
0Y"
1y
b0 `"
b0 a"
b0 b"
b0 ,"
b0 #$
0)"
0J
1,$
b0 -$
b0 Q
b0 o"
b0 w#
b0 /$
b0 -"
b0 m#
b0 "$
b0 .$
b0 o#
b0 ""
b0 ?"
b0 @$
0}
0B
b0 =$
08"
b0 6"
b0 F"
b0 H"
b0 4"
b0 G"
b0 J"
b0 7"
b0 C"
b0 I"
1:"
05"
0#
0s
0%
b0 c#
1R#
b0 e#
0o
b0 W#
b0 d#
b0 Y#
0,
0-
b10000 0$
b100000 v#
b1000 I$
1+
#10000
0+
#15000
b0 *
b0 z
b0 Q"
b0 U"
b0 ]"
b0 f"
b1000 I$
b100000 v#
b10000 0$
1+
#20000
0+
#25000
b10000 0$
b100000 v#
b1000 I$
1+
#30000
0+
#35000
b1000 I$
b100000 v#
b10000 0$
1+
#40000
0+
#45000
b10000 0$
b100000 v#
b1000 I$
1+
#50000
0+
#55000
b1000 I$
b100000 v#
b10000 0$
1+
#60000
0+
#65000
b10000 0$
b100000 v#
b1000 I$
1+
#70000
0+
#75000
b1000 I$
b100000 v#
b10000 0$
1+
#80000
0+
#85000
b10000 0$
b100000 v#
b1000 I$
1+
#90000
0+
#95000
b1000 I$
b100000 v#
b10000 0$
1+
#100000
0+
0.
#105000
1S"
b1000000000100110111 (
b1000000000100110111 2
b1000000000100110111 R"
b1000000000100110111 Z"
1)
1V"
1,
1+
#110000
0+
#115000
17
1i"
0j"
b1001000000000000000011101111 (
b1001000000000000000011101111 2
b1001000000000000000011101111 R"
b1001000000000000000011101111 Z"
b1000000000000000000 8
b1000000000000000000 B#
b1000000000000000000 ;$
1X
1K
1u
b0 k
b0 (#
b0 K#
b1000000000000000000 m
b1000000000000000000 &#
b1000000000000000000 H#
b0 f
b0 +#
b0 N#
b1011 l
b1011 '#
b1011 J#
b0 ?
b0 =#
b0 6$
b1000000000000000000 A
b1000000000000000000 ;#
b1000000000000000000 4$
b1011 @
b1011 <#
b1011 5$
b0 V
b0 3#
b0 q#
b1000 W
b1000 2#
b1000 p#
0Y
b0 [
b0 1#
b0 i#
0\
b1000 ^
b1000 0#
b1000 g#
b10 `
b10 .#
b10 k#
b0 O
b0 5#
b0 y#
b10 L
b10 7#
b10 {#
b1011 P
b1011 4#
b1011 x#
b1000000000000000000 y"
0$#
0{"
1"#
0~"
0}"
0|"
0##
0!#
0z"
b1011 x"
b110111 u"
b0 w"
b0 v"
b10 r"
b1000 l"
b0 k"
0y
b1 `"
b1 b"
b0 v
b0 W"
b0 \"
b0 h"
b1000000000100110111 w
b1000000000100110111 X"
b1000000000100110111 ["
b1000000000100110111 g"
b100 *
b100 z
b100 Q"
b100 U"
b100 ]"
b100 f"
1+
#120000
0+
#125000
b1010000000010010011 (
b1010000000010010011 2
b1010000000010010011 R"
b1010000000010010011 Z"
b100 9
b100 A#
b100 :$
b10010000 m
b10010000 &#
b10010000 H#
b1100 l
b1100 '#
b1100 J#
b10010000 A
b10010000 ;#
b10010000 4$
b1100 @
b1100 <#
b1100 5$
b10000 V
b10000 3#
b10000 q#
b0 W
b0 2#
b0 p#
b10000 [
b10000 1#
b10000 i#
b0 ^
b0 0#
b0 g#
b1 `
b1 .#
b1 k#
b1 L
b1 7#
b1 {#
b1100 P
b1100 4#
b1100 x#
1}"
b10010000 y"
0"#
b1100 x"
b1101111 u"
b100 v"
b1 r"
b0 l"
b10000 k"
b100 k
b100 (#
b100 K#
b1 q
b1 %#
b1 F#
b100 ?
b100 =#
b100 6$
b1 C
b1 :#
b1 3$
b10010000 8
b10010000 B#
b10010000 ;$
17
b1 _
b1 /#
b1 l#
1X
b100 O
b100 5#
b100 y#
1K
1u
1F$
b1 G$
b1000 I$
1E$
b1000 *
b1000 z
b1000 Q"
b1000 U"
b1000 ]"
b1000 f"
b10 b"
b1001000000000000000011101111 w
b1001000000000000000011101111 X"
b1001000000000000000011101111 ["
b1001000000000000000011101111 g"
b100 v
b100 W"
b100 \"
b100 h"
b1 a"
0,$
b1 -$
b1 Q
b1 o"
b1 w#
b1 /$
b0 ("
b0 %$
b0 *"
b0 $$
b10 '"
b10 n#
b10 s#
b10 &$
b1011 ,"
b1011 #$
b100 o#
b1 =$
1+
#130000
0+
#135000
1i"
1S
b0 m
b0 &#
b0 H#
b1 l
b1 '#
b1 J#
b0 A
b0 ;#
b0 4$
b1 @
b1 <#
b1 5$
b0 V
b0 3#
b0 q#
b1010 W
b1010 2#
b1010 p#
b0 [
b0 1#
b0 i#
b1010 ^
b1010 0#
b1010 g#
b1 P
b1 4#
b1 x#
b10011 (
b10011 2
b10011 R"
b10011 Z"
b1 H$
1F$
b1000 I$
b0 G$
1E$
b1000000000000000000 B"
1z"
b0 y"
0}"
b1 x"
b10011 u"
b0 v"
b1010 l"
b0 k"
b1000 k
b1000 (#
b1000 K#
b10 q
b10 %#
b10 F#
b1000 ?
b1000 =#
b1000 6$
b10 C
b10 :#
b10 3$
b0 8
b0 B#
b0 ;$
b0 9
b0 A#
b0 :$
17
b10 _
b10 /#
b10 l#
1X
b1000 O
b1000 5#
b1000 y#
1K
1u
b0 ~
b0 ="
b0 B$
b0 $"
b0 A"
b0 >$
b0 !"
b0 >"
b0 A$
b1000000000000000000 #"
b1000000000000000000 @"
b1000000000000000000 ?$
b1000000000000000000 {
b1000000000000000000 ;"
b1000000000000000000 D$
b0 |
b0 <"
b0 C$
b1011 ""
b1011 ?"
b1011 @$
1}
b110 o#
b10 -$
b10 Q
b10 o"
b10 w#
b10 /$
b11 b"
b1010000000010010011 w
b1010000000010010011 X"
b1010000000010010011 ["
b1010000000010010011 g"
b1000 v
b1000 W"
b1000 \"
b1000 h"
b10 a"
b1100 *
b1100 z
b1100 Q"
b1100 U"
b1100 ]"
b1100 f"
1+
#140000
0+
#145000
b0 W
b0 2#
b0 p#
b0 ^
b0 0#
b0 g#
b0 `
b0 .#
b0 k#
b0 L
b0 7#
b0 {#
1z"
b1 x"
b0 r"
b0 l"
b1100 k
b1100 (#
b1100 K#
b11 q
b11 %#
b11 F#
b1100 ?
b1100 =#
b1100 6$
b11 C
b11 :#
b11 3$
17
1S
b11 _
b11 /#
b11 l#
0X
b1100 O
b1100 5#
b1100 y#
1K
1u
b0 H$
1F$
b10 G$
b1000 I$
1E$
b1000000000000000000 /"
b1000000000000000000 O"
b1000000000000000000 E#
b1000000000000000000 ~#
b1000000000000000000 2$
10"
19"
b10000 *
b10000 z
b10000 Q"
b10000 U"
b10000 ]"
b10000 f"
b100 b"
b10011 w
b10011 X"
b10011 ["
b10011 g"
b1100 v
b1100 W"
b1100 \"
b1100 h"
b11 a"
b11 -$
b11 Q
b11 o"
b11 w#
b11 /$
b10 =$
0}
b1000000000000000000 4"
b1000000000000000000 G"
b1000000000000000000 J"
0:"
15"
1+
#150000
0+
#155000
16
b0 /"
b0 O"
b0 E#
b0 ~#
b0 2$
00"
09"
1F$
b11 G$
1E$
1&"
1z"
b1 x"
b10000 k
b10000 (#
b10000 K#
b100 q
b100 %#
b100 F#
b10000 ?
b10000 =#
b10000 6$
b100 C
b100 :#
b100 3$
17
1S
b100 _
b100 /#
b100 l#
b10000 O
b10000 5#
b10000 y#
1K
1u
1:"
05"
b11 =$
0+"
b0 1
b0 P"
b0 c"
b0 ."
b0 !$
b1000000000000000000 %"
b1000000000000000000 r#
b1000000000000000000 '$
b100 -$
b100 Q
b100 o"
b100 w#
b100 /$
b101 b"
b10011 w
b10011 X"
b10011 ["
b10011 g"
b10000 v
b10000 W"
b10000 \"
b10000 h"
b100 a"
b10100 *
b10100 z
b10100 Q"
b10100 U"
b10100 ]"
b10100 f"
b1000 f#
b1000 I$
1+
#160000
0+
