tomasulo/sim/vector_add_debug.log
WARNING: testbench.v:60: $readmemh(inst_rom.data): Not enough words in the file for the requested range [0:65535].
VCD info: dumpfile tomasulo_cpu.vcd opened for output.
Time:               125000 | ISSUE: PC=00000000 | Op=0b | DestROB= 0 | RD= 2
Time:               135000 | ISSUE: PC=00000004 | Op=0c | DestROB= 1 | RD= 1
RS: Issued op=0b rob_id= 0 to FU
Time:               145000 | ISSUE: PC=00000008 | Op=01 | DestROB= 2 | RD= 1
Time:               155000 | ISSUE: PC=0000000c | Op=01 | DestROB= 3 | RD= 0
Time:               165000 | Commit PC: 00000000 | Op: 0b | Rd:  2 | Val: 00040000
RS: Issued op=01 rob_id= 2 to FU
Time:               165000 | ISSUE: PC=00000010 | Op=01 | DestROB= 4 | RD= 0
Time:               175000 | ISSUE: PC=00000014 | Op=01 | DestROB= 5 | RD= 0
Time:               185000 | ISSUE: PC=00000018 | Op=01 | DestROB= 6 | RD= 0
Time:               195000 | ISSUE: PC=0000001c | Op=01 | DestROB= 7 | RD= 0
RS: Issued op=01 rob_id= 5 to FU
RS: Issued op=0c rob_id= 1 to FU
Time:               255000 | Commit PC: 00000004 | Op: 0c | Rd:  1 | Val: 00000008
Time:               275000 | ISSUE: PC=00000028 | Op=01 | DestROB= 0 | RD=11
RS: Issued op=01 rob_id= 0 to FU
Time:               285000 | ISSUE: PC=0000002c | Op=01 | DestROB= 1 | RD=10
Time:               295000 | ISSUE: PC=00000030 | Op=01 | DestROB= 2 | RD=14
Time:               305000 | ISSUE: PC=00000034 | Op=01 | DestROB= 3 | RD=15
Time:               315000 | ISSUE: PC=00000038 | Op=01 | DestROB= 4 | RD=17
RS: Issued op=01 rob_id= 2 to FU
Time:               315000 | Commit PC: 00000028 | Op: 01 | Rd: 11 | Val: 00000090
Time:               325000 | ISSUE: PC=0000003c | Op=01 | DestROB= 5 | RD=12
Time:               335000 | ISSUE: PC=00000040 | Op=18 | DestROB= 6 | RD=13
RS: Issued op=01 rob_id= 5 to FU
Time:               345000 | ISSUE: PC=00000044 | Op=18 | DestROB= 7 | RD=16
Time:               355000 | ISSUE: PC=00000048 | Op=01 | DestROB= 8 | RD=15
Time:               365000 | ISSUE: PC=0000004c | Op=01 | DestROB= 9 | RD=10
Time:               375000 | ISSUE: PC=00000050 | Op=01 | DestROB=10 | RD=13
RS: Issued op=01 rob_id= 1 to FU
Time:               385000 | ISSUE: PC=00000054 | Op=19 | DestROB=11 | RD= 0
Time:               395000 | ISSUE: PC=00000058 | Op=01 | DestROB=12 | RD=12
Time:               405000 | Commit PC: 0000002c | Op: 01 | Rd: 10 | Val: 00000220
RS: Issued op=01 rob_id=12 to FU
Time:               405000 | ISSUE: PC=0000005c | Op=11 | DestROB=13 | RD= 5
Time:               415000 | ISSUE: PC=00000060 | Op=01 | DestROB=14 | RD=13
Time:               415000 | Commit PC: 00000030 | Op: 01 | Rd: 14 | Val: 00000540
Time:               425000 | ROB Head:  3 | Ready: 0 | CommitValid: 0 | CDB_Valid: 1 | CDB_ID: 12
Time:               425000 | ISSUE: PC=00000064 | Op=01 | DestROB=15 | RD=10
RS: Issued op=01 rob_id=14 to FU
Time:               435000 | ROB Head:  3 | Ready: 0 | CommitValid: 0 | CDB_Valid: 0 | CDB_ID:  0
Time:               445000 | ROB Head:  3 | Ready: 0 | CommitValid: 0 | CDB_Valid: 0 | CDB_ID:  0
Time:               445000 | ISSUE: PC=00000068 | Op=01 | DestROB= 0 | RD=11
Time:               455000 | ISSUE: PC=0000006c | Op=18 | DestROB= 1 | RD=15
Time:               455000 | ROB Head:  3 | Ready: 0 | CommitValid: 0 | CDB_Valid: 1 | CDB_ID: 14
Time:               465000 | ROB Head:  3 | Ready: 0 | CommitValid: 0 | CDB_Valid: 0 | CDB_ID:  0
RS: Issued op=01 rob_id= 0 to FU
Time:               465000 | ISSUE: PC=00000070 | Op=18 | DestROB= 2 | RD=12
Time:               475000 | ROB Head:  3 | Ready: 0 | CommitValid: 0 | CDB_Valid: 0 | CDB_ID:  0
Time:               485000 | ROB Head:  3 | Ready: 0 | CommitValid: 0 | CDB_Valid: 1 | CDB_ID:  0
RS: Issued op=01 rob_id= 3 to FU
Time:               495000 | ROB Head:  3 | Ready: 0 | CommitValid: 0 | CDB_Valid: 0 | CDB_ID:  0
Time:               505000 | ROB Head:  3 | Ready: 0 | CommitValid: 0 | CDB_Valid: 0 | CDB_ID:  0
Time:               515000 | ROB Head:  3 | Ready: 0 | CommitValid: 0 | CDB_Valid: 1 | CDB_ID:  3
Time:               525000 | ROB Head:  3 | Ready: 1 | CommitValid: 1 | CDB_Valid: 0 | CDB_ID:  0
Time:               525000 | Commit PC: 00000034 | Op: 01 | Rd: 15 | Val: 00000090
RS: Issued op=01 rob_id= 8 to FU
Time:               535000 | ISSUE: PC=00000074 | Op=01 | DestROB= 3 | RD=14
Time:               535000 | ROB Head:  4 | Ready: 0 | CommitValid: 0 | CDB_Valid: 0 | CDB_ID:  0
Time:               545000 | ROB Head:  4 | Ready: 0 | CommitValid: 0 | CDB_Valid: 1 | CDB_ID:  8
RS: Issued op=01 rob_id= 3 to FU
Time:               555000 | ROB Head:  4 | Ready: 0 | CommitValid: 0 | CDB_Valid: 1 | CDB_ID:  6
Time:               565000 | ROB Head:  4 | Ready: 0 | CommitValid: 0 | CDB_Valid: 0 | CDB_ID:  0
Time:               575000 | ROB Head:  4 | Ready: 0 | CommitValid: 0 | CDB_Valid: 1 | CDB_ID:  3
Time:               585000 | ROB Head:  4 | Ready: 0 | CommitValid: 0 | CDB_Valid: 0 | CDB_ID:  0
RS: Issued op=01 rob_id= 4 to FU
Time:               595000 | ROB Head:  4 | Ready: 0 | CommitValid: 0 | CDB_Valid: 1 | CDB_ID:  7
Time:               605000 | ROB Head:  4 | Ready: 0 | CommitValid: 0 | CDB_Valid: 1 | CDB_ID:  4
RS: Issued op=01 rob_id= 9 to FU
Time:               615000 | Commit PC: 00000038 | Op: 01 | Rd: 17 | Val: 00000220
Time:               615000 | ROB Head:  4 | Ready: 1 | CommitValid: 1 | CDB_Valid: 0 | CDB_ID:  0
Time:               625000 | Commit PC: 0000003c | Op: 01 | Rd: 12 | Val: 00000540
Time:               625000 | ISSUE: PC=00000078 | Op=01 | DestROB= 4 | RD=13
Time:               635000 | ISSUE: PC=0000007c | Op=02 | DestROB= 5 | RD=15
Time:               635000 | Commit PC: 00000040 | Op: 18 | Rd: 13 | Val: 00002104
Time:               645000 | Commit PC: 00000044 | Op: 18 | Rd: 16 | Val: 0000101d
RS: Issued op=01 rob_id= 4 to FU
Time:               645000 | ISSUE: PC=00000080 | Op=05 | DestROB= 6 | RD=15
Time:               655000 | ISSUE: PC=00000084 | Op=01 | DestROB= 7 | RD=10
Time:               655000 | Commit PC: 00000048 | Op: 01 | Rd: 15 | Val: 00000094
Time:               665000 | Commit PC: 0000004c | Op: 01 | Rd: 10 | Val: 00000224
Time:               665000 | ISSUE: PC=00000088 | Op=11 | DestROB= 8 | RD= 5
Time:               675000 | ISSUE: PC=0000008c | Op=0c | DestROB= 9 | RD= 0
RS: Issued op=11 rob_id= 8 to FU
RS: Issued op=0c rob_id= 9 to FU
RS: Issued op=01 rob_id=10 to FU
Time:               765000 | Commit PC: 00000050 | Op: 01 | Rd: 13 | Val: 00003121
RS: Issued op=11 rob_id=13 to FU
Time:               775000 | ISSUE: PC=00000090 | Op=00 | DestROB=10 | RD= 2
Time:               795000 | Commit PC: 00000054 | Op: 19 | Rd:  0 | Val: 00000000
Time:               805000 | Commit PC: 00000058 | Op: 01 | Rd: 12 | Val: 00000544
RS: Issued op=01 rob_id=15 to FU
Time:               805000 | ISSUE: PC=00000094 | Op=00 | DestROB=11 | RD=18
Time:               815000 | ISSUE: PC=00000098 | Op=00 | DestROB=12 | RD=21
Time:               815000 | Commit PC: 0000005c | Op: 11 | Rd:  5 | Val: 00000000
Time:               835000 | ISSUE: PC=00000040 | Op=18 | DestROB= 0 | RD=13
Time:               845000 | ISSUE: PC=00000044 | Op=18 | DestROB= 1 | RD=16
Time:               855000 | ISSUE: PC=00000048 | Op=01 | DestROB= 2 | RD=15
RS: Issued op=01 rob_id= 2 to FU
Time:               865000 | ISSUE: PC=0000004c | Op=01 | DestROB= 3 | RD=10
Time:               875000 | ISSUE: PC=00000050 | Op=01 | DestROB= 4 | RD=13
Time:               885000 | Commit PC: 00000040 | Op: 18 | Rd: 13 | Val: 0000090b
Time:               885000 | ISSUE: PC=00000054 | Op=19 | DestROB= 5 | RD= 0
Time:               895000 | ISSUE: PC=00000058 | Op=01 | DestROB= 6 | RD=12
RS: Issued op=01 rob_id= 3 to FU
Time:               905000 | ISSUE: PC=0000005c | Op=11 | DestROB= 7 | RD= 5
Time:               915000 | ISSUE: PC=00000060 | Op=01 | DestROB= 8 | RD=13
Time:               925000 | Commit PC: 00000044 | Op: 18 | Rd: 16 | Val: 00001eae
Time:               925000 | ISSUE: PC=00000064 | Op=01 | DestROB= 9 | RD=10
Time:               935000 | ISSUE: PC=00000068 | Op=01 | DestROB=10 | RD=11
RS: Issued op=01 rob_id= 4 to FU
Time:               935000 | Commit PC: 00000048 | Op: 01 | Rd: 15 | Val: 00000098
Time:               945000 | ROB Head:  3 | Ready: 1 | CommitValid: 1 | CDB_Valid: 0 | CDB_ID:  0
Time:               945000 | Commit PC: 0000004c | Op: 01 | Rd: 10 | Val: 00000228
Time:               945000 | ISSUE: PC=0000006c | Op=18 | DestROB=11 | RD=15
Time:               955000 | ISSUE: PC=00000070 | Op=18 | DestROB=12 | RD=12
Time:               955000 | ROB Head:  4 | Ready: 0 | CommitValid: 0 | CDB_Valid: 1 | CDB_ID:  4
Time:               965000 | ROB Head:  4 | Ready: 1 | CommitValid: 1 | CDB_Valid: 0 | CDB_ID:  0
Time:               965000 | Commit PC: 00000050 | Op: 01 | Rd: 13 | Val: 000027b9
RS: Issued op=11 rob_id= 7 to FU
Time:               965000 | ISSUE: PC=00000074 | Op=01 | DestROB=13 | RD=14
Time:               975000 | ISSUE: PC=00000078 | Op=01 | DestROB=14 | RD=13
Time:               985000 | ISSUE: PC=0000007c | Op=02 | DestROB=15 | RD=15
Time:               995000 | ISSUE: PC=00000080 | Op=05 | DestROB= 0 | RD=15
Time:               995000 | Commit PC: 00000054 | Op: 19 | Rd:  0 | Val: 00000000
RS: Issued op=01 rob_id=13 to FU
Time:              1015000 | ISSUE: PC=00000084 | Op=01 | DestROB= 1 | RD=10
RS: Issued op=01 rob_id= 6 to FU
Time:              1045000 | ISSUE: PC=00000088 | Op=11 | DestROB= 2 | RD= 5
Time:              1065000 | Commit PC: 00000058 | Op: 01 | Rd: 12 | Val: 00000548
RS: Issued op=01 rob_id= 8 to FU
Time:              1075000 | ISSUE: PC=0000008c | Op=0c | DestROB= 3 | RD= 0
Time:              1075000 | Commit PC: 0000005c | Op: 11 | Rd:  5 | Val: 00000000
Time:              1095000 | ISSUE: PC=00000040 | Op=18 | DestROB= 0 | RD=13
Time:              1105000 | ISSUE: PC=00000044 | Op=18 | DestROB= 1 | RD=16
Time:              1115000 | ISSUE: PC=00000048 | Op=01 | DestROB= 2 | RD=15
RS: Issued op=01 rob_id= 2 to FU
Time:              1125000 | ISSUE: PC=0000004c | Op=01 | DestROB= 3 | RD=10
Time:              1135000 | ISSUE: PC=00000050 | Op=01 | DestROB= 4 | RD=13
Time:              1145000 | Commit PC: 00000040 | Op: 18 | Rd: 13 | Val: 00001a85
Time:              1145000 | ISSUE: PC=00000054 | Op=19 | DestROB= 5 | RD= 0
Time:              1155000 | ISSUE: PC=00000058 | Op=01 | DestROB= 6 | RD=12
RS: Issued op=01 rob_id= 3 to FU
Time:              1165000 | ISSUE: PC=0000005c | Op=11 | DestROB= 7 | RD= 5
Time:              1175000 | ISSUE: PC=00000060 | Op=01 | DestROB= 8 | RD=13
Time:              1185000 | Commit PC: 00000044 | Op: 18 | Rd: 16 | Val: 000004ef
Time:              1185000 | ISSUE: PC=00000064 | Op=01 | DestROB= 9 | RD=10
Time:              1195000 | ISSUE: PC=00000068 | Op=01 | DestROB=10 | RD=11
RS: Issued op=01 rob_id= 4 to FU
Time:              1195000 | Commit PC: 00000048 | Op: 01 | Rd: 15 | Val: 0000009c
Time:              1205000 | ROB Head:  3 | Ready: 1 | CommitValid: 1 | CDB_Valid: 0 | CDB_ID:  0
Time:              1205000 | Commit PC: 0000004c | Op: 01 | Rd: 10 | Val: 0000022c
Time:              1205000 | ISSUE: PC=0000006c | Op=18 | DestROB=11 | RD=15
Time:              1215000 | ISSUE: PC=00000070 | Op=18 | DestROB=12 | RD=12
Time:              1215000 | ROB Head:  4 | Ready: 0 | CommitValid: 0 | CDB_Valid: 1 | CDB_ID:  4
Time:              1225000 | ROB Head:  4 | Ready: 1 | CommitValid: 1 | CDB_Valid: 0 | CDB_ID:  0
Time:              1225000 | Commit PC: 00000050 | Op: 01 | Rd: 13 | Val: 00001f74
RS: Issued op=11 rob_id= 7 to FU
Time:              1225000 | ISSUE: PC=00000074 | Op=01 | DestROB=13 | RD=14
Time:              1235000 | ISSUE: PC=00000078 | Op=01 | DestROB=14 | RD=13
Time:              1245000 | ISSUE: PC=0000007c | Op=02 | DestROB=15 | RD=15
Time:              1255000 | ISSUE: PC=00000080 | Op=05 | DestROB= 0 | RD=15
Time:              1255000 | Commit PC: 00000054 | Op: 19 | Rd:  0 | Val: 00000000
RS: Issued op=01 rob_id=13 to FU
Time:              1275000 | ISSUE: PC=00000084 | Op=01 | DestROB= 1 | RD=10
RS: Issued op=01 rob_id= 6 to FU
Time:              1305000 | ISSUE: PC=00000088 | Op=11 | DestROB= 2 | RD= 5
Time:              1325000 | Commit PC: 00000058 | Op: 01 | Rd: 12 | Val: 0000054c
RS: Issued op=01 rob_id= 8 to FU
Time:              1335000 | ISSUE: PC=0000008c | Op=0c | DestROB= 3 | RD= 0
Time:              1335000 | Commit PC: 0000005c | Op: 11 | Rd:  5 | Val: 00000000
Time:              1355000 | ISSUE: PC=00000040 | Op=18 | DestROB= 0 | RD=13
Time:              1365000 | ISSUE: PC=00000044 | Op=18 | DestROB= 1 | RD=16
Time:              1375000 | ISSUE: PC=00000048 | Op=01 | DestROB= 2 | RD=15
RS: Issued op=01 rob_id= 2 to FU
Time:              1385000 | ISSUE: PC=0000004c | Op=01 | DestROB= 3 | RD=10
Time:              1395000 | ISSUE: PC=00000050 | Op=01 | DestROB= 4 | RD=13
Time:              1405000 | Commit PC: 00000040 | Op: 18 | Rd: 13 | Val: 0000101b
Time:              1405000 | ISSUE: PC=00000054 | Op=19 | DestROB= 5 | RD= 0
Time:              1415000 | ISSUE: PC=00000058 | Op=01 | DestROB= 6 | RD=12
RS: Issued op=01 rob_id= 3 to FU
Time:              1425000 | ISSUE: PC=0000005c | Op=11 | DestROB= 7 | RD= 5
Time:              1435000 | ISSUE: PC=00000060 | Op=01 | DestROB= 8 | RD=13
Time:              1445000 | Commit PC: 00000044 | Op: 18 | Rd: 16 | Val: 000025a0
Time:              1445000 | ISSUE: PC=00000064 | Op=01 | DestROB= 9 | RD=10
Time:              1455000 | ISSUE: PC=00000068 | Op=01 | DestROB=10 | RD=11
RS: Issued op=01 rob_id= 4 to FU
Time:              1455000 | Commit PC: 00000048 | Op: 01 | Rd: 15 | Val: 000000a0
Time:              1465000 | ROB Head:  3 | Ready: 1 | CommitValid: 1 | CDB_Valid: 0 | CDB_ID:  0
Time:              1465000 | Commit PC: 0000004c | Op: 01 | Rd: 10 | Val: 00000230
Time:              1465000 | ISSUE: PC=0000006c | Op=18 | DestROB=11 | RD=15
Time:              1475000 | ISSUE: PC=00000070 | Op=18 | DestROB=12 | RD=12
Time:              1475000 | ROB Head:  4 | Ready: 0 | CommitValid: 0 | CDB_Valid: 1 | CDB_ID:  4
Time:              1485000 | ROB Head:  4 | Ready: 1 | CommitValid: 1 | CDB_Valid: 0 | CDB_ID:  0
Time:              1485000 | Commit PC: 00000050 | Op: 01 | Rd: 13 | Val: 000035bb
RS: Issued op=11 rob_id= 7 to FU
Time:              1485000 | ISSUE: PC=00000074 | Op=01 | DestROB=13 | RD=14
Time:              1495000 | ISSUE: PC=00000078 | Op=01 | DestROB=14 | RD=13
Time:              1505000 | ISSUE: PC=0000007c | Op=02 | DestROB=15 | RD=15
Time:              1515000 | ISSUE: PC=00000080 | Op=05 | DestROB= 0 | RD=15
Time:              1515000 | Commit PC: 00000054 | Op: 19 | Rd:  0 | Val: 00000000
RS: Issued op=01 rob_id=13 to FU
Time:              1535000 | ISSUE: PC=00000084 | Op=01 | DestROB= 1 | RD=10
RS: Issued op=01 rob_id= 6 to FU
Time:              1565000 | ISSUE: PC=00000088 | Op=11 | DestROB= 2 | RD= 5
Time:              1585000 | Commit PC: 00000058 | Op: 01 | Rd: 12 | Val: 00000550
RS: Issued op=01 rob_id= 8 to FU
Time:              1595000 | ISSUE: PC=0000008c | Op=0c | DestROB= 3 | RD= 0
Time:              1595000 | Commit PC: 0000005c | Op: 11 | Rd:  5 | Val: 00000000
Time:              1615000 | ISSUE: PC=00000040 | Op=18 | DestROB= 0 | RD=13
Time:              1625000 | ISSUE: PC=00000044 | Op=18 | DestROB= 1 | RD=16
Time:              1635000 | ISSUE: PC=00000048 | Op=01 | DestROB= 2 | RD=15
RS: Issued op=01 rob_id= 2 to FU
Time:              1645000 | ISSUE: PC=0000004c | Op=01 | DestROB= 3 | RD=10
Time:              1655000 | ISSUE: PC=00000050 | Op=01 | DestROB= 4 | RD=13
Time:              1665000 | Commit PC: 00000040 | Op: 18 | Rd: 13 | Val: 00002360
Time:              1665000 | ISSUE: PC=00000054 | Op=19 | DestROB= 5 | RD= 0
Time:              1675000 | ISSUE: PC=00000058 | Op=01 | DestROB= 6 | RD=12
RS: Issued op=01 rob_id= 3 to FU
Time:              1685000 | ISSUE: PC=0000005c | Op=11 | DestROB= 7 | RD= 5
Time:              1695000 | ISSUE: PC=00000060 | Op=01 | DestROB= 8 | RD=13
Time:              1705000 | Commit PC: 00000044 | Op: 18 | Rd: 16 | Val: 00000d7b
Time:              1705000 | ISSUE: PC=00000064 | Op=01 | DestROB= 9 | RD=10
Time:              1715000 | ISSUE: PC=00000068 | Op=01 | DestROB=10 | RD=11
RS: Issued op=01 rob_id= 4 to FU
Time:              1715000 | Commit PC: 00000048 | Op: 01 | Rd: 15 | Val: 000000a4
Time:              1725000 | ROB Head:  3 | Ready: 1 | CommitValid: 1 | CDB_Valid: 0 | CDB_ID:  0
Time:              1725000 | Commit PC: 0000004c | Op: 01 | Rd: 10 | Val: 00000234
Time:              1725000 | ISSUE: PC=0000006c | Op=18 | DestROB=11 | RD=15
Time:              1735000 | ISSUE: PC=00000070 | Op=18 | DestROB=12 | RD=12
Time:              1735000 | ROB Head:  4 | Ready: 0 | CommitValid: 0 | CDB_Valid: 1 | CDB_ID:  4
Time:              1745000 | ROB Head:  4 | Ready: 1 | CommitValid: 1 | CDB_Valid: 0 | CDB_ID:  0
Time:              1745000 | Commit PC: 00000050 | Op: 01 | Rd: 13 | Val: 000030db
RS: Issued op=11 rob_id= 7 to FU
Time:              1745000 | ISSUE: PC=00000074 | Op=01 | DestROB=13 | RD=14
Time:              1755000 | ISSUE: PC=00000078 | Op=01 | DestROB=14 | RD=13
Time:              1765000 | ISSUE: PC=0000007c | Op=02 | DestROB=15 | RD=15
Time:              1775000 | ISSUE: PC=00000080 | Op=05 | DestROB= 0 | RD=15
Time:              1775000 | Commit PC: 00000054 | Op: 19 | Rd:  0 | Val: 00000000
RS: Issued op=01 rob_id=13 to FU
Time:              1795000 | ISSUE: PC=00000084 | Op=01 | DestROB= 1 | RD=10
RS: Issued op=01 rob_id= 6 to FU
Time:              1825000 | ISSUE: PC=00000088 | Op=11 | DestROB= 2 | RD= 5
Time:              1845000 | Commit PC: 00000058 | Op: 01 | Rd: 12 | Val: 00000554
RS: Issued op=01 rob_id= 8 to FU
Time:              1855000 | ISSUE: PC=0000008c | Op=0c | DestROB= 3 | RD= 0
Time:              1855000 | Commit PC: 0000005c | Op: 11 | Rd:  5 | Val: 00000000
Time:              1875000 | ISSUE: PC=00000040 | Op=18 | DestROB= 0 | RD=13
Time:              1885000 | ISSUE: PC=00000044 | Op=18 | DestROB= 1 | RD=16
Time:              1895000 | ISSUE: PC=00000048 | Op=01 | DestROB= 2 | RD=15
RS: Issued op=01 rob_id= 2 to FU
Time:              1905000 | ISSUE: PC=0000004c | Op=01 | DestROB= 3 | RD=10
Time:              1915000 | ISSUE: PC=00000050 | Op=01 | DestROB= 4 | RD=13
Time:              1925000 | Commit PC: 00000040 | Op: 18 | Rd: 13 | Val: 00000504
Time:              1925000 | ISSUE: PC=00000054 | Op=19 | DestROB= 5 | RD= 0
Time:              1935000 | ISSUE: PC=00000058 | Op=01 | DestROB= 6 | RD=12
RS: Issued op=01 rob_id= 3 to FU
Time:              1945000 | ISSUE: PC=0000005c | Op=11 | DestROB= 7 | RD= 5
Time:              1955000 | ISSUE: PC=00000060 | Op=01 | DestROB= 8 | RD=13
Time:              1965000 | Commit PC: 00000044 | Op: 18 | Rd: 16 | Val: 00002206
Time:              1965000 | ISSUE: PC=00000064 | Op=01 | DestROB= 9 | RD=10
Time:              1975000 | ISSUE: PC=00000068 | Op=01 | DestROB=10 | RD=11
RS: Issued op=01 rob_id= 4 to FU
Time:              1975000 | Commit PC: 00000048 | Op: 01 | Rd: 15 | Val: 000000a8
Time:              1985000 | ROB Head:  3 | Ready: 1 | CommitValid: 1 | CDB_Valid: 0 | CDB_ID:  0
Time:              1985000 | Commit PC: 0000004c | Op: 01 | Rd: 10 | Val: 00000238
Time:              1985000 | ISSUE: PC=0000006c | Op=18 | DestROB=11 | RD=15
Time:              1995000 | ISSUE: PC=00000070 | Op=18 | DestROB=12 | RD=12
Time:              1995000 | ROB Head:  4 | Ready: 0 | CommitValid: 0 | CDB_Valid: 1 | CDB_ID:  4
Time:              2005000 | ROB Head:  4 | Ready: 1 | CommitValid: 1 | CDB_Valid: 0 | CDB_ID:  0
Time:              2005000 | Commit PC: 00000050 | Op: 01 | Rd: 13 | Val: 0000270a
RS: Issued op=11 rob_id= 7 to FU
Time:              2005000 | ISSUE: PC=00000074 | Op=01 | DestROB=13 | RD=14
Time:              2015000 | ISSUE: PC=00000078 | Op=01 | DestROB=14 | RD=13
Time:              2025000 | ISSUE: PC=0000007c | Op=02 | DestROB=15 | RD=15
Time:              2035000 | ISSUE: PC=00000080 | Op=05 | DestROB= 0 | RD=15
Time:              2035000 | Commit PC: 00000054 | Op: 19 | Rd:  0 | Val: 00000000
RS: Issued op=01 rob_id=13 to FU
Time:              2055000 | ISSUE: PC=00000084 | Op=01 | DestROB= 1 | RD=10
RS: Issued op=01 rob_id= 6 to FU
Time:              2085000 | ISSUE: PC=00000088 | Op=11 | DestROB= 2 | RD= 5
Time:              2105000 | Commit PC: 00000058 | Op: 01 | Rd: 12 | Val: 00000558
RS: Issued op=01 rob_id= 8 to FU
Time:              2115000 | ISSUE: PC=0000008c | Op=0c | DestROB= 3 | RD= 0
Time:              2115000 | Commit PC: 0000005c | Op: 11 | Rd:  5 | Val: 00000000
Time:              2135000 | ISSUE: PC=00000040 | Op=18 | DestROB= 0 | RD=13
Time:              2145000 | ISSUE: PC=00000044 | Op=18 | DestROB= 1 | RD=16
Time:              2155000 | ISSUE: PC=00000048 | Op=01 | DestROB= 2 | RD=15
RS: Issued op=01 rob_id= 2 to FU
Time:              2165000 | ISSUE: PC=0000004c | Op=01 | DestROB= 3 | RD=10
Time:              2175000 | ISSUE: PC=00000050 | Op=01 | DestROB= 4 | RD=13
Time:              2185000 | Commit PC: 00000040 | Op: 18 | Rd: 13 | Val: 00001cad
Time:              2185000 | ISSUE: PC=00000054 | Op=19 | DestROB= 5 | RD= 0
Time:              2195000 | ISSUE: PC=00000058 | Op=01 | DestROB= 6 | RD=12
RS: Issued op=01 rob_id= 3 to FU
Time:              2205000 | ISSUE: PC=0000005c | Op=11 | DestROB= 7 | RD= 5
Time:              2215000 | ISSUE: PC=00000060 | Op=01 | DestROB= 8 | RD=13
Time:              2225000 | Commit PC: 00000044 | Op: 18 | Rd: 16 | Val: 00000801
Time:              2225000 | ISSUE: PC=00000064 | Op=01 | DestROB= 9 | RD=10
Time:              2235000 | ISSUE: PC=00000068 | Op=01 | DestROB=10 | RD=11
RS: Issued op=01 rob_id= 4 to FU
Time:              2235000 | Commit PC: 00000048 | Op: 01 | Rd: 15 | Val: 000000ac
Time:              2245000 | ROB Head:  3 | Ready: 1 | CommitValid: 1 | CDB_Valid: 0 | CDB_ID:  0
Time:              2245000 | Commit PC: 0000004c | Op: 01 | Rd: 10 | Val: 0000023c
Time:              2245000 | ISSUE: PC=0000006c | Op=18 | DestROB=11 | RD=15
Time:              2255000 | ISSUE: PC=00000070 | Op=18 | DestROB=12 | RD=12
Time:              2255000 | ROB Head:  4 | Ready: 0 | CommitValid: 0 | CDB_Valid: 1 | CDB_ID:  4
Time:              2265000 | ROB Head:  4 | Ready: 1 | CommitValid: 1 | CDB_Valid: 0 | CDB_ID:  0
Time:              2265000 | Commit PC: 00000050 | Op: 01 | Rd: 13 | Val: 000024ae
RS: Issued op=11 rob_id= 7 to FU
Time:              2265000 | ISSUE: PC=00000074 | Op=01 | DestROB=13 | RD=14
Time:              2275000 | ISSUE: PC=00000078 | Op=01 | DestROB=14 | RD=13
Time:              2285000 | ISSUE: PC=0000007c | Op=02 | DestROB=15 | RD=15
Time:              2295000 | ISSUE: PC=00000080 | Op=05 | DestROB= 0 | RD=15
Time:              2295000 | Commit PC: 00000054 | Op: 19 | Rd:  0 | Val: 00000000
RS: Issued op=01 rob_id=13 to FU
Time:              2315000 | ISSUE: PC=00000084 | Op=01 | DestROB= 1 | RD=10
RS: Issued op=01 rob_id= 6 to FU
Time:              2345000 | ISSUE: PC=00000088 | Op=11 | DestROB= 2 | RD= 5
Time:              2365000 | Commit PC: 00000058 | Op: 01 | Rd: 12 | Val: 0000055c
RS: Issued op=01 rob_id= 8 to FU
Time:              2375000 | ISSUE: PC=0000008c | Op=0c | DestROB= 3 | RD= 0
Time:              2375000 | Commit PC: 0000005c | Op: 11 | Rd:  5 | Val: 00000000
Time:              2395000 | ISSUE: PC=00000040 | Op=18 | DestROB= 0 | RD=13
Time:              2405000 | ISSUE: PC=00000044 | Op=18 | DestROB= 1 | RD=16
Time:              2415000 | ISSUE: PC=00000048 | Op=01 | DestROB= 2 | RD=15
RS: Issued op=01 rob_id= 2 to FU
Time:              2425000 | ISSUE: PC=0000004c | Op=01 | DestROB= 3 | RD=10
Time:              2435000 | ISSUE: PC=00000050 | Op=01 | DestROB= 4 | RD=13
Time:              2445000 | Commit PC: 00000040 | Op: 18 | Rd: 13 | Val: 000015f4
Time:              2445000 | ISSUE: PC=00000054 | Op=19 | DestROB= 5 | RD= 0
Time:              2455000 | ISSUE: PC=00000058 | Op=01 | DestROB= 6 | RD=12
RS: Issued op=01 rob_id= 3 to FU
Time:              2465000 | ISSUE: PC=0000005c | Op=11 | DestROB= 7 | RD= 5
Time:              2475000 | ISSUE: PC=00000060 | Op=01 | DestROB= 8 | RD=13
Time:              2485000 | Commit PC: 00000044 | Op: 18 | Rd: 16 | Val: 000018f4
Time:              2485000 | ISSUE: PC=00000064 | Op=01 | DestROB= 9 | RD=10
Time:              2495000 | ISSUE: PC=00000068 | Op=01 | DestROB=10 | RD=11
RS: Issued op=01 rob_id= 4 to FU
Time:              2495000 | Commit PC: 00000048 | Op: 01 | Rd: 15 | Val: 000000b0
Time:              2505000 | ROB Head:  3 | Ready: 1 | CommitValid: 1 | CDB_Valid: 0 | CDB_ID:  0
Time:              2505000 | Commit PC: 0000004c | Op: 01 | Rd: 10 | Val: 00000240
Time:              2505000 | ISSUE: PC=0000006c | Op=18 | DestROB=11 | RD=15
Time:              2515000 | ISSUE: PC=00000070 | Op=18 | DestROB=12 | RD=12
Time:              2515000 | ROB Head:  4 | Ready: 0 | CommitValid: 0 | CDB_Valid: 1 | CDB_ID:  4
Time:              2525000 | ROB Head:  4 | Ready: 1 | CommitValid: 1 | CDB_Valid: 0 | CDB_ID:  0
Time:              2525000 | Commit PC: 00000050 | Op: 01 | Rd: 13 | Val: 00002ee8
RS: Issued op=11 rob_id= 7 to FU
Time:              2525000 | ISSUE: PC=00000074 | Op=01 | DestROB=13 | RD=14
Time:              2535000 | ISSUE: PC=00000078 | Op=01 | DestROB=14 | RD=13
Time:              2545000 | ISSUE: PC=0000007c | Op=02 | DestROB=15 | RD=15
Time:              2555000 | ISSUE: PC=00000080 | Op=05 | DestROB= 0 | RD=15
Time:              2555000 | Commit PC: 00000054 | Op: 19 | Rd:  0 | Val: 00000000
RS: Issued op=01 rob_id=13 to FU
Time:              2575000 | ISSUE: PC=00000084 | Op=01 | DestROB= 1 | RD=10
RS: Issued op=01 rob_id= 6 to FU
Time:              2605000 | ISSUE: PC=00000088 | Op=11 | DestROB= 2 | RD= 5
Time:              2625000 | Commit PC: 00000058 | Op: 01 | Rd: 12 | Val: 00000560
RS: Issued op=01 rob_id= 8 to FU
Time:              2635000 | ISSUE: PC=0000008c | Op=0c | DestROB= 3 | RD= 0
Time:              2635000 | Commit PC: 0000005c | Op: 11 | Rd:  5 | Val: 00000000
Time:              2655000 | ISSUE: PC=00000040 | Op=18 | DestROB= 0 | RD=13
Time:              2665000 | ISSUE: PC=00000044 | Op=18 | DestROB= 1 | RD=16
Time:              2675000 | ISSUE: PC=00000048 | Op=01 | DestROB= 2 | RD=15
RS: Issued op=01 rob_id= 2 to FU
Time:              2685000 | ISSUE: PC=0000004c | Op=01 | DestROB= 3 | RD=10
Time:              2695000 | ISSUE: PC=00000050 | Op=01 | DestROB= 4 | RD=13
